30|3|4125061108|09/09/2016|09/09/2021|06/09/2016 11:18:20 a.m.|06/09/2016 11:56:02 a.m.|OPERACION CANCELADA
30|2|PYR016160000|09/09/2016|09/09/2021|06/09/2016 12:02:39 p.m.|06/09/2016 06:01:39 p.m.|OPERACION CANCELADA
30|3|4125061117|09/09/2017|09/09/2021|06/09/2016 06:56:48 p.m.|07/09/2016 11:52:31 a.m.|OPERACION CANCELADA
30|3|4125061116|09/09/2016|09/09/2017|06/09/2016 06:56:48 p.m.|07/09/2016 11:52:31 a.m.|OPERACION CANCELADA
30|3|4125061081|02/09/2017|02/09/2021|02/09/2016 12:25:04 p.m.|07/09/2016 12:05:59 p.m.|OPERACION CANCELADA
30|2|PYR158470000|02/09/2016|02/09/2017|02/09/2016 12:25:04 p.m.|07/09/2016 12:06:00 p.m.|OPERACION CANCELADA
30|3|4125060995|26/08/2016|26/08/2021|26/08/2016 10:19:50 a.m.|07/09/2016 04:11:39 p.m.|OPERACION CANCELADA
30|3|4125061075|01/09/2017|01/09/2021|01/09/2016 06:06:31 p.m.|07/09/2016 09:15:25 a.m.|OPERACION CANCELADA
30|2|PYR158410000|01/09/2016|01/09/2017|01/09/2016 06:06:31 p.m.|07/09/2016 09:15:25 a.m.|OPERACION CANCELADA
30|2|PYR016230000|07/09/2016|07/09/2018|07/09/2016 06:23:17 p.m.|08/09/2016 10:05:43 a.m.|OPERACION CANCELADA
30|3|4125061123|07/09/2017|07/09/2022|07/09/2016 06:01:18 p.m.|07/09/2016 06:06:27 p.m.|OPERACION CANCELADA
30|2|PYR016220000|07/09/2016|07/09/2017|07/09/2016 06:01:18 p.m.|07/09/2016 06:06:27 p.m.|OPERACION CANCELADA
