30|3|4125061041|0|8637|2016|X6B / FIGO ENERGY TM 5 PTAS W/DEFROSTER||5151176527|30/08/2017|30/08/2021|01|4|360|S/N|MAJFP1ND0GA118678||29395.12|420.00|2977.73|0.00|5246.86|0.00|0.00|0.00|38039.71|TAIDE|RAMON|RIVAS|1|JERICO 33|EL PROGRESO|VERACRUZ|MEDELLIN|94273|RART-590303-M47|1|2292839450|03/03/1959|ramon_59_taide@outlook.es|5432^5432^5432|34258|01|01|185200.00|$ 1,000,000 POR EVENTO|$    250,000 POR EVENTO|0.05|0.1|50000|$ 3,000,000 POR EVENTO|48|1
30|3|4125060956|0|1923|2016|F3C / FIESTA S TA 4 PTAS||5221268012|23/08/2017|23/08/2022|01|5|360|HECHO EN MEXICO|3FAFP4AJ4GM182187||41092.70|420.00|7491.20|0.00|7840.62|0.00|0.00|0.00|56844.52|WENCESLAO|ALANIS|LONGORIA|1|CANARIAS 1105|RDCIAL STA FE|NUEVO LEON|SAN NICOLAS DE LOS GARZA|66473|AALW-610409-UF0|1|8183416705|09/04/1961|C@HOTMAIL.COM|5432^5432^5432|34258|01|01|215400.00|$ 1,000,000 POR EVENTO|$    250,000 POR EVENTO|0.05|0.1|50000|$ 3,000,000 POR EVENTO|60|1
30|3|4125060984|0|1925|2016|F2C / FIESTA SE TA 4 PTAS||5221176513|25/08/2017|25/08/2022|01|5|360|HECHO EN MEXICO|3FADP4BJ5GM177909||43771.10|420.00|7979.47|0.00|8347.29|0.00|0.00|0.00|60517.86|JUAN ROBERTO|CAVAZOS|MONTEMAYOR|1|VALLE DE JAZMINES 404|VALLE AZUL|NUEVO LEON|APODACA|66620|CAMJ-900624-MW7|1|8281002134|24/06/1990|juanrobertomc@gmail.com|5432^5432^5432|34258|01|01|234000.00|$ 1,000,000 POR EVENTO|$    250,000 POR EVENTO|0.05|0.1|50000|$ 3,000,000 POR EVENTO|60|1
30|3|4125061009|0|3257|2016|W8B / ECOSPORT TREND AT||5221275007|27/08/2017|27/08/2021|01|4|360|HECHO EN INDIA|MAJUP3SF2GC150822||33805.88|420.00|3424.54|0.00|6024.07|0.00|0.00|0.00|43674.49|PABLO|QUINTERO|MARTINEZ|1|FATIMA 221|JARDINES DE SANTA CLARA|NUEVO LEON|GUADALUPE (CIUDAD GUADALUPE)|67190|QUMP-670404-PS7|1|8140402379|04/04/1967|maquinter21@hotmail.com|5432^5432^5432|34258|01|01|283000.00|$ 1,000,000 POR EVENTO|$    250,000 POR EVENTO|0.05|0.1|50000|$ 3,000,000 POR EVENTO|48|1
30|3|4125061008|0|3257|2016|W8B / ECOSPORT TREND AT||5221275007|27/08/2016|27/08/2017|01|1|0|HECHO EN INDIA|MAJUP3SF2GC150822||8451.47|420.00|0.00|0.00|1419.44|0.00|0.00|0.00|10290.91|FINANCIERA AUTOPCION, S.A. DE C.V. SOFOM ENR|||2|CALZ. GRAL. MARIANO ESCOBEDO NO. 498 PISO 8|ANZURES|DISTRITO FEDERAL|MIGUEL HIDALGO|11590|CON080707DD4|2|52.28.70.00|01/01/1900||5432^5432^5432|34258|01|01|283000.00|$ 1,000,000 POR EVENTO|$    250,000 POR EVENTO|0.05|0.1|50000|$ 3,000,000 POR EVENTO|12|1
30|3|4125061010|0|8631|2016|X5B / FIGO IMPULSE TA A/A 4 PTAS W/DEFROSTER||5221223067|27/08/2017|27/08/2021|01|4|360|HECHO EN  INDIA|MAJFP1MD7GA121580||30270.52|420.00|3066.40|0.00|5401.11|0.00|0.00|0.00|39158.03|ALLAN DAVID|RODRIGUEZ|LOPEZ|1|PROF GERMAN ALMARAZ 125|LA VICTORIA|NUEVO LEON|GUADALUPE (CIUDAD GUADALUPE)|67110|ROLA-930427-SK9|1|8183648805|27/04/1993|ROLA270493@HOTMAIL.COM|5432^5432^5432|34258|01|01|192799.00|$ 1,000,000 POR EVENTO|$    250,000 POR EVENTO|0.05|0.1|50000|$ 3,000,000 POR EVENTO|48|1
30|3|4125061043|0|3199|2016|X5D / FIGO IMPULSE TM A/A 4 PTAS W/DEFROSTER||5221238195|30/08/2017|30/08/2021|01|4|360|HECHO EN INDIA|MAJFP1MD2GA117291||28168.24|420.00|2853.44|0.00|5030.67|0.00|0.00|0.00|36472.35|FABIOLA DAFNE|MENDEZ|ZUÑIGA|1|PYRENA 122|FRACC PRIVALIA HUINALA|NUEVO LEON|APODACA|66640|MEZF-890327-1L9|1|811111111111111|27/03/1989|C@GMAIL.COM|5432^5432^5432|34258|01|01|174550.00|$ 1,000,000 POR EVENTO|$    250,000 POR EVENTO|0.05|0.1|50000|$ 3,000,000 POR EVENTO|48|1
30|3|4125060952|0|1923|2016|F3C / FIESTA S TA 4 PTAS||6541272019|26/08/2017|26/08/2021|01|4|360|HECHO EN MEXICO|3FAFP4AJ4GM182271||32874.16|420.00|3330.15|0.00|5859.89|0.00|0.00|0.00|42484.20|ROMELIA|TAMEZ|GOMEZ|1|TIZAPAN 657|LOMAS DE ANAHUAC|NUEVO LEON|MONTERREY|64260|TAGR-580611-I38|1|88503998|11/06/1958|romy.tamez@gmail.com|5432^5432^5432|34258|01|01|215400.00|$ 1,000,000 POR EVENTO|$    250,000 POR EVENTO|0.05|0.1|50000|$ 3,000,000 POR EVENTO|48|1
30|3|4125061056|0|8635|2016|X5C / FIGO IMPULSE TM A/A 5 PTAS W/DEFROSTER||6541216069|02/09/2017|02/09/2021|01|4|360|IMPORTADO|MAJFP1ND8GA110151||27753.52|420.00|2811.43|0.00|4957.59|0.00|0.00|0.00|35942.54|DELIA MARIA|YERENA|MENDOZA|1|MISION SAN DIEGO 415|URBI VILLA COLONIAL 1ER SECTOR|NUEVO LEON|MONTERREY|64103|YEMD-930427-675|1|8122628177|27/04/1993|giga_1425@hotmail.com|5432^5432^5432|34258|01|01|170950.00|$ 1,000,000 POR EVENTO|$    250,000 POR EVENTO|0.05|0.1|50000|$ 3,000,000 POR EVENTO|48|1
30|3|4125060968|0|8636|2016|X5A / FIGO IMPULSE TA A/A 5 PTAS W/DEFROSTER||3341230034|26/08/2017|26/08/2021|01|4|360|1.5|MAJFP1NDXGA107994||29855.92|420.00|3024.40|0.00|5328.05|0.00|0.00|0.00|38628.37|JULIO|AYON|BARRON|1|SANTA EUGENIA 4228|REAL DEL VALLE|SINALOA|MAZATLAN|82124|AOBJ-830128-6R9|1|6696885808|28/01/1983|ayon_01@hotmail.com|5432^5432^5432|34258|01|01|189200.00|$ 1,000,000 POR EVENTO|$    250,000 POR EVENTO|0.05|0.1|50000|$ 3,000,000 POR EVENTO|48|1
30|3|4125061012|0|1925|2016|F2C / FIESTA SE TA 4 PTAS||0371278010|29/08/2017|29/08/2021|01|4|360|184221|3FADP4BJ2GM184221|4FG1GGLB|35016.88|420.00|3547.21|0.00|6237.45|0.00|0.00|0.00|45221.54|LUIS DANIEL|GARCIA|RODRIGUEZ|1|MILO 109|PRIV LA CEIBAS|TAMAULIPAS|REYNOSA (CIUDAD REYNOSA)|88655|GARL-960326-4M6|1|8999534500|26/03/1996|luis_w1cho@hotmail.com|5432^5432^5432|34258|01|01|234000.00|$ 1,000,000 POR EVENTO|$    250,000 POR EVENTO|0.05|0.1|50000|$ 3,000,000 POR EVENTO|48|1
30|3|4125061040|0|8637|2016|X6B / FIGO ENERGY TM 5 PTAS W/DEFROSTER||3341239021|31/08/2017|31/08/2021|01|4|360|15|MAJFP1ND2GA111201||29395.12|420.00|2977.73|0.00|5246.86|0.00|0.00|0.00|38039.71|INGRID SARAHY|CABALLERO|CHAVEZ|1|LEO 3606|VILLA GALAXIA|SINALOA|MAZATLAN|82150|CACI-940709-193|1|6691245190|09/07/1994|ingridv2@gmail.com|5432^5432^5432|34258|01|01|185200.00|$ 1,000,000 POR EVENTO|$    250,000 POR EVENTO|0.05|0.1|50000|$ 3,000,000 POR EVENTO|48|1
30|3|4125061068|0|8631|2016|X5B / FIGO IMPULSE TA A/A 4 PTAS W/DEFROSTER||0371223075|01/09/2017|01/09/2021|01|4|360|117413|MAJFP1MD1GA117413|34BLB5BE|30270.64|420.00|3066.42|0.00|5401.13|0.00|0.00|0.00|39158.19|EMMANUEL|MALDONADO|DOMINGUEZ|1|SANTO TOMAS SUR 232|FRACCIONAMIENTO SAN PEDRO|TAMAULIPAS|REYNOSA (CIUDAD REYNOSA)|88754|MADE-880331-J99|1|899-4566560|31/03/1988|marthamarin0504@gmail.com|5432^5432^5432|34258|01|01|192800.00|$ 1,000,000 POR EVENTO|$    250,000 POR EVENTO|0.05|0.1|50000|$ 3,000,000 POR EVENTO|48|1
30|3|4125061077|0|8638|2016|Y6A / FIGO ENERGY TA 5 PTAS||0371176537|02/09/2017|02/09/2021|01|4|360|105368|MAJFP1ND8GA105368|3H5DCCDN|30685.36|420.00|3108.43|0.00|5474.21|0.00|0.00|0.00|39688.00|JAEL|QUINTERO|VALLE|1|PRIVADA PICACHOS 407|FRACC FUENTES SECCION LOMAS|TAMAULIPAS|REYNOSA (CIUDAD REYNOSA)|88703|QUVJ-490424-3K2|1|8999955227|24/04/1949|JAYLY_QUINTERO06@HOTMAIL.COM|5432^5432^5432|34258|01|01|196400.00|$ 1,000,000 POR EVENTO|$    250,000 POR EVENTO|0.05|0.1|50000|$ 3,000,000 POR EVENTO|48|1
30|3|4125061015|0|3257|2016|W8B / ECOSPORT TREND AT||5101275006|30/08/2017|30/08/2021|01|4|360|SIN NUMERO|MAJUP3SF8GC151831|3JG0CIC0|33805.88|420.00|3424.54|0.00|6024.07|0.00|0.00|0.00|43674.49|HILDA MARTHA|RAMIREZ|REYNOSO|1|AND DEL CANTIL 1106|RANCHO PAVON INFONAVIT|SAN LUIS POTOSI|SOLEDAD DE GRACIANO SANCHEZ|78434|RARH-741023-IA6|1|4444527361|23/10/1974|hildaramirez@live.com.mx|5432^5432^5432|34258|01|01|283000.00|$ 1,000,000 POR EVENTO|$    250,000 POR EVENTO|0.05|0.1|50000|$ 3,000,000 POR EVENTO|48|1
30|3|4125061014|0|3257|2016|W8B / ECOSPORT TREND AT||5101275006|30/08/2016|30/08/2017|01|1|0|SIN NUMERO|MAJUP3SF8GC151831|3JG0CIC0|8451.47|420.00|0.00|0.00|1419.44|0.00|0.00|0.00|10290.91|FINANCIERA AUTOPCION, S.A. DE C.V. SOFOM ENR|||2|CALZ. GRAL. MARIANO ESCOBEDO NO. 498 PISO 8|ANZURES|DISTRITO FEDERAL|MIGUEL HIDALGO|11590|CON080707DD4|2|52.28.70.00|01/01/1900||5432^5432^5432|34258|01|01|283000.00|$ 1,000,000 POR EVENTO|$    250,000 POR EVENTO|0.05|0.1|50000|$ 3,000,000 POR EVENTO|12|1
30|3|4125061078|0|3095|2016|F4C / FIESTA TITANIUM TA 4 PTAS||0371176536|02/09/2017|02/09/2021|01|4|360|182191|3FADP4CJ0GM182191|4FG1GIJB|36848.56|420.00|3732.76|0.00|6560.21|0.00|0.00|0.00|47561.53|ANGELICA|RODRIGUEZ|ALVAREZ|1|JUCHITLAN 616|BENITO JUAREZ|TAMAULIPAS|REYNOSA (CIUDAD REYNOSA)|88790|ROAA-850918-TU3|1|8999571392|18/09/1985|ANGERDZ@HOTMAIL.COM|5432^5432^5432|34258|01|01|249900.00|$ 1,000,000 POR EVENTO|$    250,000 POR EVENTO|0.05|0.1|50000|$ 3,000,000 POR EVENTO|48|1
30|3|4125061074|0|3071|2016|F2B / FIESTA SE TM 5 PTAS||5101286003|02/09/2017|02/09/2021|01|4|360|SIN NUMERO|3FADP4EJ0GM153013|4E6NIBDB|32931.76|420.00|3335.99|0.00|5870.04|0.00|0.00|0.00|42557.79|GUSTAVO ARTURO|FERNANDEZ|SIERRA|1|EJE VIAL 485|TLAXCALA|SAN LUIS POTOSI|SAN LUIS POTOSI|78038|FESG-851030-569|1|4448125606|30/10/1985|gusfernandez222@gmail.com|5432^5432^5432|34258|01|01|215900.00|$ 1,000,000 POR EVENTO|$    250,000 POR EVENTO|0.05|0.1|50000|$ 3,000,000 POR EVENTO|48|1
30|3|4125061033|0|3071|2016|F2B / FIESTA SE TM 5 PTAS||2211266026|30/08/2017|30/08/2022|01|5|360|SNGASOLINA|3FADP4EJ2GM181184|4N9BCM69|41164.70|420.00|7504.32|0.00|7854.24|0.00|0.00|0.00|56943.26|ALEJANDRA|VAZQUEZ|CAPISTRAN|1|CUAUHTEMOTZIN 32 13|CENTRO|MORELOS|CUERNAVACA|62000|VACA-811008-MS1|1|7772185853|08/10/1981|alecapis@hotmail.com|5432^5432^5432|34258|01|01|215900.00|$ 1,000,000 POR EVENTO|$    250,000 POR EVENTO|0.05|0.1|50000|$ 3,000,000 POR EVENTO|60|1
30|3|4125061069|0|13101|2017|J1E / RANGER XLT GAS CREW CAB||2211176532|05/09/2017|05/09/2021|01|4|360|SNGASOLINA|8AFWR5AA7H6441517|39MC25LM|57195.80|420.00|5793.93|0.00|10145.56|0.00|0.00|0.00|73555.29|MA ELENA|RIOS|REYES|1|CALLE 17 MZ 22 LT 10|BOSQUE DE LA COLMENA|ESTADO DE MEXICO|VILLA NICOLAS ROMERO|54476|RIRM-691112-6M9|1|59966372|12/11/1969|maririosreyes@gmail.com|5432^5432^5432|34258|01|01|379900.00|$ 1,200,000 POR EVENTO|$    150,000 POR EVENTO|0.05|0.1|50000|$ 3,000,000 POR EVENTO|48|2
30|3|4125061007|0|3088|2016|W7B / ECOSPORT TITANIUM AT||3398484000|30/08/2017|30/08/2021|01|4|360|GC152236|MAJUP3PF9GC152236||36980.56|420.00|3746.13|0.00|6583.47|0.00|0.00|0.00|47730.16|CRISTINO|CASTRO|GARIBALDI|1|LAZARO CARDENAS 60|EL EBANO|SINALOA|ANGOSTURA|81600|CAGC-801018-7C4|1|6731194181|18/10/1980|CRISTINOGARIBALDI@HOTMAIL.COM|5432^5432^5432|34258|01|01|318400.00|$ 1,000,000 POR EVENTO|$    250,000 POR EVENTO|0.05|0.1|50000|$ 3,000,000 POR EVENTO|48|1
30|3|4125061006|0|3088|2016|W7B / ECOSPORT TITANIUM AT||3398484000|30/08/2016|30/08/2017|01|1|0|GC152236|MAJUP3PF9GC152236||9245.14|420.00|0.00|0.00|1546.42|0.00|0.00|0.00|11211.56|FINANCIERA AUTOPCION, S.A. DE C.V. SOFOM ENR|||2|CALZ. GRAL. MARIANO ESCOBEDO NO. 498 PISO 8|ANZURES|DISTRITO FEDERAL|MIGUEL HIDALGO|11590|CON080707DD4|2|52.28.70.00|01/01/1900||5432^5432^5432|34258|01|01|318400.00|$ 1,000,000 POR EVENTO|$    250,000 POR EVENTO|0.05|0.1|50000|$ 3,000,000 POR EVENTO|12|1
30|3|4125061082|0|3199|2016|X5D / FIGO IMPULSE TM A/A 4 PTAS W/DEFROSTER||3391238203|06/09/2017|06/09/2021|01|4|360|GA119734|MAJFP1MD9GA119734||28168.24|420.00|2853.44|0.00|5030.67|0.00|0.00|0.00|36472.35|FLERIDA GUADALUPE|RAMIREZ|LOPEZ|1|PRIV SIERRA DE GATA 5981|VILLA BONITA|SINALOA|CULIACAN|80199|RALF-900206-LI8|1|6673324941|06/02/1990|ing.fleridaram@hotmail.com|5432^5432^5432|34258|01|01|174550.00|$ 1,000,000 POR EVENTO|$    250,000 POR EVENTO|0.05|0.1|50000|$ 3,000,000 POR EVENTO|48|1
30|3|4125060975|0|8635|2016|X5C / FIGO IMPULSE TM A/A 5 PTAS W/DEFROSTER||5051216074|28/08/2017|28/08/2021|01|4|360|GA114089|MAJFP1ND5GA114089||27753.52|420.00|2811.43|0.00|4957.59|0.00|0.00|0.00|35942.54|FIDEL|ESTRADA|GARCIA|1|AV. PASEO HUIXQUILUICAN MZ 9 LT 1|MONTON CUARTELES|ESTADO DE MEXICO|HUIXQUILUCAN DE DEGOLLADO|52760|EAGF-531116-LK5|1|5291-4483|16/11/1953|garcia1611@hotmail.com|5432^5432^5432|34258|01|01|170950.00|$ 1,000,000 POR EVENTO|$    250,000 POR EVENTO|0.05|0.1|50000|$ 3,000,000 POR EVENTO|48|1
30|3|4125061051|0|3199|2016|X5D / FIGO IMPULSE TM A/A 4 PTAS W/DEFROSTER||5051225084|04/09/2017|04/09/2021|01|4|360|GA121017|MAJFP1MD2GA121017||28168.24|420.00|2853.44|0.00|5030.67|0.00|0.00|0.00|36472.35|ADALBERTO|RODRIGUEZ|SOLIS|1|FLORES MAGON 37|PLUTARCO ELIAS CALLES|DISTRITO FEDERAL|MIGUEL HIDALGO|11420|ROSA-730724-RK2|1|26906209|24/07/1973|ianrodriguezmolina@gmail.com|5432^5432^5432|34258|01|01|174550.00|$ 1,000,000 POR EVENTO|$    250,000 POR EVENTO|0.05|0.1|50000|$ 3,000,000 POR EVENTO|48|1
30|3|4125060938|0|8635|2016|X5C / FIGO IMPULSE TM A/A 5 PTAS W/DEFROSTER||3321216071|20/08/2017|20/08/2021|01|4|360|GA109079|MAJFP1NDXGA109079|4EC2KI7P|27753.52|420.00|2811.43|0.00|4957.59|0.00|0.00|0.00|35942.54|ABRAHAM|VALDES|RODRIGUEZ|1|NARANJOS 129|HACIENDA LOS VIÑEDOS|COAHUILA|PARRAS|27985|VARA-850602-450|1|8424221975|02/06/1985|a.b.d.x020685@gmail.com|5432^5432^5432|34258|01|01|170950.00|$ 1,000,000 POR EVENTO|$    250,000 POR EVENTO|0.05|0.1|50000|$ 3,000,000 POR EVENTO|48|1
30|3|4125061042|0|3091|2017|C2E / FUSION SE LUX PLUS NAV 2L GTDI||3321280036|30/08/2017|30/08/2020|01|3|360|HR116917|3FA6P0H93HR116917|4EJIE696|33561.03|420.00|2047.22|0.00|5764.52|0.00|0.00|0.00|41792.77|CARLOS|VILLARREAL|VERASTEGUI|1|HUACHICHILES 977|EL TAJITO|COAHUILA|TORREON|27100|VIVC-760722-RK9|1|8717700367|22/07/1976|carlosvive3@gmail.com|5432^5432^5432|34258|01|01|461600.00|$ 1,000,000 POR EVENTO|$    250,000 POR EVENTO|0.05|0.1|50000|$ 3,000,000 POR EVENTO|36|1
30|3|4125061070|0|3199|2016|X5D / FIGO IMPULSE TM A/A 4 PTAS W/DEFROSTER||0391238191|01/09/2017|01/09/2021|01|4|360|119005|MAJFP1MD7GA119005|4070190L|28168.24|420.00|2853.44|0.00|5030.67|0.00|0.00|0.00|36472.35|NORMA ALICIA|JERONIMO|GUEVARA|1|PRIV. ALBERTO CARRERA TORRES 521|CENTRO|TAMAULIPAS|JAUMAVE|87930|JEGN-761113-1U7|1|8311082365|13/11/1976|normajg11@hotmail.com|5432^5432^5432|34258|01|01|174550.00|$ 1,000,000 POR EVENTO|$    250,000 POR EVENTO|0.05|0.1|50000|$ 3,000,000 POR EVENTO|48|1
30|3|4125061079|0|8631|2016|X5B / FIGO IMPULSE TA A/A 4 PTAS W/DEFROSTER||0391223074|02/09/2017|02/09/2021|01|4|360|117354|MAJFP1MD0GA117354|3B9G8H6I|30270.64|420.00|3066.42|0.00|5401.13|0.00|0.00|0.00|39158.19|ANA MARIA|VAZQUEZ|DE LOS REYES|1|DR. AVILA 43|ZONA CENTRO|TAMAULIPAS|JIMENEZ|87700|VADA-620814-340|1|8353380085|14/08/1962|kareli_princesitha@hotmail.com|5432^5432^5432|34258|01|01|192800.00|$ 1,000,000 POR EVENTO|$    250,000 POR EVENTO|0.05|0.1|50000|$ 3,000,000 POR EVENTO|48|1
30|3|4125061081|0|8634|2016|X7A / FIGO TITANIUM W/DEFROSTER||0391237044|02/09/2017|02/09/2021|01|4|360|116514|MAJFP1PD8GA116514|4OOJO685|32908.72|420.00|3333.65|0.00|5865.98|0.00|0.00|0.00|42528.35|MARIA AMELIA|ADAME|DE LEON|1|LAURO AGUIRRE NTE 402|CENTRO|TAMAULIPAS|CIUDAD VICTORIA|87000|AALM-600506-N79|1|8343126680|06/05/1960|mrh_6560@hotmail.com|5432^5432^5432|34258|01|01|215700.00|$ 1,000,000 POR EVENTO|$    250,000 POR EVENTO|0.05|0.1|50000|$ 3,000,000 POR EVENTO|48|1
30|2|PZR139740000|0|1715701|2016|F2B / FIESTA SE TM 5 PTAS||0801280029|27/08/2017|27/08/2020|01|3|360|HECHO EN MEXICO|3FADP4EJ0GM145901|30D43C91|28577.22|400.00|0.00|0.00|4636.36|0.00|0.00|0.00|33613.58|JUAN CARLOS|ROJAS|BALDERAS|1|IGNACIO COMONFORT 36|NEUTLA|GUANAJUATO|COMONFORT|38220|ROBJ-910705-9L4|1|014126900725|05/07/1991|carlos5_rojas@hotmail.com|TA6110|29580|01|01|215900.00|0|0|0.05|0.1|0|0|36|1
30|2|PYR157800000|0|1715701|2016|F2B / FIESTA SE TM 5 PTAS||0801280029|27/08/2016|27/08/2017|01|1|0|HECHO EN MEXICO|3FADP4EJ0GM145901|30D43C91|8320.15|400.00|0.00|0.00|1395.22|0.00|0.00|0.00|10115.37|FINANCIERA AUTOPCION, S.A. DE C.V. SOFOM ENR|||2|CALZ. GRAL. MARIANO ESCOBEDO NO. 498 PISO 8|ANZURES|DISTRITO FEDERAL|MIGUEL HIDALGO|11590|CON080707DD4|2|52.28.70.00|01/01/1900||TA6110|29580|01|01|215900.00|0|0|0.05|0.1|0|0|12|1
30|3|4125060995|0|3963|2017|E2C / EXPLORER XLT V6 LEATHER||3191093205|26/08/2016|26/08/2021|01|5|360|HECHO EN EEUU|1FM5K7D8XHGA13975|3MHGF724|91056.95|420.00|16599.68|0.00|17292.26|0.00|0.00|0.00|125368.89|ARMETECO PRODUCTOS DEL CAMPO S DE RL DE CV|||2|MIGUEL HIDALGO 71|EL CAMPANARIO|COLIMA|ARMERIA|28307|APC140610HG5|2|3133221961|01/01/1900|armeteco@hotmail.com|5432^5432^5432|34258|01|01|646000.00|$ 1,000,000 POR EVENTO|$    250,000 POR EVENTO|0.05|0.1|50000|$ 3,000,000 POR EVENTO|60|1
30|3|4125060950|0|3257|2016|W8B / ECOSPORT TREND AT||4401176491|24/08/2017|24/08/2021|01|4|360|GC151923|MAJUP3SF2GC151923||33805.88|420.00|3424.54|0.00|6024.07|0.00|0.00|0.00|43674.49|MARIA DE LOS ANGELES|QUIROZ|SOSA|1|MINA NAMIQUIPA 1729|VILLAS DEL REAL|CHIHUAHUA|CHIHUAHUA|31137|QUSM-670801-749|1|6144838321|01/08/1967|angyquiroz28@hotmail.com|5432^5432^5432|34258|01|01|283000.00|$ 1,000,000 POR EVENTO|$    250,000 POR EVENTO|0.05|0.1|50000|$ 3,000,000 POR EVENTO|48|1
30|3|4125060949|0|3257|2016|W8B / ECOSPORT TREND AT||4401176491|24/08/2016|24/08/2017|01|1|0|GC151923|MAJUP3SF2GC151923||8451.47|420.00|0.00|0.00|1419.44|0.00|0.00|0.00|10290.91|FINANCIERA AUTOPCION, S.A. DE C.V. SOFOM ENR|||2|CALZ. GRAL. MARIANO ESCOBEDO NO. 498 PISO 8|ANZURES|DISTRITO FEDERAL|MIGUEL HIDALGO|11590|CON080707DD4|2|52.28.70.00|01/01/1900||5432^5432^5432|34258|01|01|283000.00|$ 1,000,000 POR EVENTO|$    250,000 POR EVENTO|0.05|0.1|50000|$ 3,000,000 POR EVENTO|12|1
30|3|4125060929|0|8635|2016|X5C / FIGO IMPULSE TM A/A 5 PTAS W/DEFROSTER||1641176507|22/08/2017|22/08/2021|01|4|360|S/N|MAJFP1ND0GA113352|5LKI5M9M|27753.52|420.00|2811.43|0.00|4957.59|0.00|0.00|0.00|35942.54|CARMEN|MARTINEZ|GOMEZ|1|PARRAS 3127 7|PARQUE INDUSTRIAL EL ALAMO|JALISCO|GUADALAJARA|44490|MAGC-560825-7H7|1|20165840|25/08/1956|jborquez@fordplasencia.com|5432^5432^5432|34258|01|01|170950.00|$ 1,000,000 POR EVENTO|$    250,000 POR EVENTO|0.05|0.1|50000|$ 3,000,000 POR EVENTO|48|1
30|3|4125060960|0|3199|2016|X5D / FIGO IMPULSE TM A/A 4 PTAS W/DEFROSTER||4401238168|24/08/2017|24/08/2021|01|4|360|GA117106|MAJFP1MD3GA117106||28081.84|420.00|2844.69|0.00|5015.44|0.00|0.00|0.00|36361.97|NAYELI ESTEFANIA|VARELA|SALINAS|1|PARQUE DE LA ABADIA 10334|JARDINES DEL ORIENTE|CHIHUAHUA|CHIHUAHUA|31384|VASN-960421-4F4|1|6143020202|21/04/1996|samy_fulanitas@hotmail.com|5432^5432^5432|34258|01|01|173800.00|$ 1,000,000 POR EVENTO|$    250,000 POR EVENTO|0.05|0.1|50000|$ 3,000,000 POR EVENTO|48|1
30|3|4125061022|0|3199|2016|X5D / FIGO IMPULSE TM A/A 4 PTAS W/DEFROSTER||6451238177|31/08/2017|31/08/2021|01|4|360|GA117151|MAJFP1MD8GA117151||28168.24|420.00|2853.44|0.00|5030.67|0.00|0.00|0.00|36472.35|LEOBARDO|JUAREZ|LUNA|1|EULOGIO PARRA 1207 DEPTO7|VILLASEÑOR|JALISCO|GUADALAJARA|44600|JULL-910214-1L5|1|3333343045|14/02/1991|14leo.02@gmail.com|5432^5432^5432|34258|01|01|174550.00|$ 1,000,000 POR EVENTO|$    250,000 POR EVENTO|0.05|0.1|50000|$ 3,000,000 POR EVENTO|48|1
30|3|4125061002|0|8631|2016|X5B / FIGO IMPULSE TA A/A 4 PTAS W/DEFROSTER||1641176516|30/08/2017|30/08/2021|01|4|360|S/N|MAJFP1MD5GA115387|2DM9H9PJ|30270.64|420.00|3066.42|0.00|5401.13|0.00|0.00|0.00|39158.19|JACINTO|PADRON|SEGURA|1|BOSQUE DE LA PRIMAVERA 14 M|PUERTA DEL BOSQUE|JALISCO|ZAPOPAN|45066|PASJ-640816-FT8|1|16543087|16/08/1964|jborquez@fordplasencia.com|5432^5432^5432|34258|01|01|192800.00|$ 1,000,000 POR EVENTO|$    250,000 POR EVENTO|0.05|0.1|50000|$ 3,000,000 POR EVENTO|48|1
30|3|4125061013|0|8633|2016|X6C / FIGO ENERGY TA 4 PTAS W/DEFROSTER||4401223069|27/08/2017|27/08/2022|01|5|360|GA115360|MAJFP1MD7GA115360||39695.90|420.00|7236.56|0.00|7576.39|0.00|0.00|0.00|54928.85|ROCIO|HERNANDEZ|ACEVEDO|1|CIRCUITO PRINCIPADOS 18712|SAN GABRIEL|CHIHUAHUA|CHIHUAHUA|31183|HEAR-740719-566|1|6143071238|19/07/1974|rohernandez.lcseguros@gmail.com|5432^5432^5432|34258|01|01|205700.00|$ 1,000,000 POR EVENTO|$    250,000 POR EVENTO|0.05|0.1|50000|$ 3,000,000 POR EVENTO|60|1
30|3|4125061073|0|3192|2016|H2Y / ESCAPE TREND ECOBOOST||4401176528|01/09/2017|01/09/2021|01|4|360|G1B57013|WF0CP6A96G1B57013|4E9DDE6L|47394.00|420.00|4801.01|0.00|8418.40|0.00|0.00|0.00|61033.41|JOSE FRANCISCO|HINOJOS|DELGADO|1|SEPTIMA 3009|SANTA ROSA|CHIHUAHUA|CHIHUAHUA|31200|HIDJ-551015-JK2|1|6144140829|15/10/1955|jfhd15@hotmail.com|5432^5432^5432|34258|01|01|404900.00|$ 1,000,000 POR EVENTO|$    250,000 POR EVENTO|0.05|0.1|50000|$ 3,000,000 POR EVENTO|48|1
30|3|4125061072|0|3192|2016|H2Y / ESCAPE TREND ECOBOOST||4401176528|01/09/2016|01/09/2017|01|1|0|G1B57013|WF0CP6A96G1B57013|4E9DDE6L|11848.50|420.00|0.00|0.00|1962.96|0.00|0.00|0.00|14231.46|FINANCIERA AUTOPCION, S.A. DE C.V. SOFOM ENR|||2|CALZ. GRAL. MARIANO ESCOBEDO NO. 498 PISO 8|ANZURES|DISTRITO FEDERAL|MIGUEL HIDALGO|11590|CON080707DD4|2|52.28.70.00|01/01/1900||5432^5432^5432|34258|01|01|404900.00|$ 1,000,000 POR EVENTO|$    250,000 POR EVENTO|0.05|0.1|50000|$ 3,000,000 POR EVENTO|12|1
30|3|4125060944|0|3199|2016|X5D / FIGO IMPULSE TM A/A 4 PTAS W/DEFROSTER||5191176486|24/08/2017|24/08/2021|01|4|360|SN|MAJFP1MD1GA110512|4EH2HE4K|28168.24|420.00|2853.44|0.00|5030.67|0.00|0.00|0.00|36472.35|ALDO IVANN|GONZALEZ|MACIAS|1|DESIERTO DE LIBIA MZ 5 L 15|TETLALPAN|DISTRITO FEDERAL|ALVARO OBREGON|01500|GOMA-880709|1|5512854725|09/07/1988|agonzalez.sjmx@hotmail.com|5432^5432^5432|34258|01|01|174550.00|$ 1,000,000 POR EVENTO|$    250,000 POR EVENTO|0.05|0.1|50000|$ 3,000,000 POR EVENTO|48|1
30|3|4125060959|0|3257|2016|W8B / ECOSPORT TREND AT||5191093203|27/08/2017|27/08/2021|01|4|360|SN|MAJUP3SFXGC149157|2I4PM50O|33805.88|420.00|3424.54|0.00|6024.07|0.00|0.00|0.00|43674.49|ROSA MARTHA|GONZALEZ|CISNEROS|1|TOPACIO 12 C|LOS REYES LA PAZ|ESTADO DE MEXICO|LOS REYES ACAQUILPAN (LA PAZ)|56400|GOCR-610528|1|5558576006|28/05/1961|roski1961@hotmail.com|5432^5432^5432|34258|01|01|283000.00|$ 1,000,000 POR EVENTO|$    250,000 POR EVENTO|0.05|0.1|50000|$ 3,000,000 POR EVENTO|48|1
30|3|4125060958|0|3257|2016|W8B / ECOSPORT TREND AT||5191093203|27/08/2016|27/08/2017|01|1|0|SN|MAJUP3SFXGC149157|2I4PM50O|8451.47|420.00|0.00|0.00|1419.44|0.00|0.00|0.00|10290.91|FINANCIERA AUTOPCION, S.A. DE C.V. SOFOM ENR|||2|CALZ. GRAL. MARIANO ESCOBEDO NO. 498 PISO 8|ANZURES|DISTRITO FEDERAL|MIGUEL HIDALGO|11590|CON080707DD4|2|52.28.70.00|01/01/1900||5432^5432^5432|34258|01|01|283000.00|$ 1,000,000 POR EVENTO|$    250,000 POR EVENTO|0.05|0.1|50000|$ 3,000,000 POR EVENTO|12|1
30|3|4125060963|0|3074|2016|F2A / FIESTA SE TA 5 PTAS||4151270002|23/08/2017|23/08/2021|01|4|360|SN|3FADP4EJ2GM181329|4FB6AFK3|35016.88|420.00|3547.21|0.00|6237.45|0.00|0.00|0.00|45221.54|DANIEL|QUINTANA|LOPEZ|1|CAOBAS MZA 1 LTE 7|LOS PINOS|CHIAPAS|TAPACHULA|30820|QULD-910920-MD2|1|9626286122|20/09/1991|sayco2000_goku@hotmail.com|5432^5432^5432|34258|01|01|234000.00|$ 1,000,000 POR EVENTO|$    250,000 POR EVENTO|0.05|0.1|50000|$ 3,000,000 POR EVENTO|48|1
30|3|4125060965|0|1922|2016|F3D / FIESTA S TM 4 PTAS||4151269011|23/08/2017|23/08/2021|01|4|360|SN|3FAFP4AJ0GM186690|5C0NEBOB|30927.28|420.00|3132.93|0.00|5516.83|0.00|0.00|0.00|39997.04|MARIA TERESA|PEREZ|ROCA|1|ONOMOTO . 16|HORTALIZAS JAPONESAS|CHIAPAS|TAPACHULA|30799|PERT-791029-TB5|1|9621057037|29/10/1979|lesly.vels@hotmail.com|5432^5432^5432|34258|01|01|198500.00|$ 1,000,000 POR EVENTO|$    250,000 POR EVENTO|0.05|0.1|50000|$ 3,000,000 POR EVENTO|48|1
30|3|4125060933|0|3096|2016|F5B / FIESTA ST 5 PTAS TM 5 PTAS||6151191008|22/08/2017|22/08/2020|01|3|360|S/N GASOLINA|3FADP4GX5GM175719|303G8HD8|36457.86|420.00|2223.93|0.00|6256.29|0.00|0.00|0.00|45358.08|MAURICIO J LUIS|GONZALEZ|VAZQUEZ|1|AV OAXACA 10|SAN ANDRES CHIAUTLA CENTRO|ESTADO DE MEXICO|CHIAUTLA|56030|GOVM-650922-GV6|1|5959231230|22/09/1965|dr.glez.cirugia@gmail.com|5432^5432^5432|34258|01|01|352000.00|$ 1,000,000 POR EVENTO|$    250,000 POR EVENTO|0.05|0.1|50000|$ 3,000,000 POR EVENTO|36|1
30|3|4125061044|0|8631|2016|X5B / FIGO IMPULSE TA A/A 4 PTAS W/DEFROSTER||4151223063|30/08/2017|30/08/2021|01|4|360|SN|MAJFP1MD8GA116100|3012121A|30270.64|420.00|3066.42|0.00|5401.13|0.00|0.00|0.00|39158.19|MARIA GUADALUPE|SIBAJA|GONZALEZ|1|CALLE CEDROS 12|LOS LAURELES|CHIAPAS|TAPACHULA|30780|SIGG-910305-K13|1|9661085541|05/03/1991|sibaja_1991@hotmail.com|5432^5432^5432|34258|01|01|192800.00|$ 1,000,000 POR EVENTO|$    250,000 POR EVENTO|0.05|0.1|50000|$ 3,000,000 POR EVENTO|48|1
30|3|4125060937|0|3246|2016|Z2B / FOCUS SE TA 5 PTAS||6151280024|22/08/2017|22/08/2020|01|3|360|S/N GASOLINA|1FADP3K24GL278606|4EA9AO92|27317.88|420.00|1666.39|0.00|4704.68|0.00|0.00|0.00|34108.95|MARIA TERESA|RAMIREZ|URBINA|1|AV HIDALGO 18|PBLO SANTA CATARINA|ESTADO DE MEXICO|ACOLMAN|55875|RAUM-580808-P83|1|5949570112|08/08/1958|tereram58@hotmail.com|5432^5432^5432|34258|01|01|307100.00|$ 1,000,000 POR EVENTO|$    250,000 POR EVENTO|0.05|0.1|50000|$ 3,000,000 POR EVENTO|36|1
30|3|4125061065|0|3199|2016|X5D / FIGO IMPULSE TM A/A 4 PTAS W/DEFROSTER||4151238202|01/09/2017|01/09/2021|01|4|360|SN|MAJFP1MD6GA121943|5J3IDKBB|28168.24|420.00|2853.44|0.00|5030.67|0.00|0.00|0.00|36472.35|BLANCA ESTHELA|PEREZ|GUERRERO|1|AVE AEROPUERTO 148 MZ 9 LT 2|LOS AMATES|CHIAPAS|TAPACHULA|30795|PEGB-551220-4Q7|1|9626286510|20/12/1955|miel_pam@hotmail.com|5432^5432^5432|34258|01|01|174550.00|$ 1,000,000 POR EVENTO|$    250,000 POR EVENTO|0.05|0.1|50000|$ 3,000,000 POR EVENTO|48|1
30|3|4125060941|0|3256|2016|W8D / ECOSPORT TREND MT||6881176508|23/08/2017|23/08/2021|01|4|360|IMPORTADO|MAJUP3SF9GC152227|4FMK3J8D|33626.52|420.00|3406.37|0.00|5992.46|0.00|0.00|0.00|43445.35|REBECA|CRUZ|MARTINEZ|1|LAZARO CARDENAS 46|CENTRO TUNGAREO|MICHOACAN|MARAVATIO|61264|CUMR-881015-U5A|1|4433442348|15/10/1988|rebe_151088@hotmail.com|5432^5432^5432|34258|01|01|281000.00|$ 1,000,000 POR EVENTO|$    250,000 POR EVENTO|0.05|0.1|50000|$ 3,000,000 POR EVENTO|48|1
30|3|4125060940|0|3256|2016|W8D / ECOSPORT TREND MT||6881176508|23/08/2016|23/08/2017|01|1|0|IMPORTADO|MAJUP3SF9GC152227|4FMK3J8D|8406.63|420.00|0.00|0.00|1412.26|0.00|0.00|0.00|10238.89|FINANCIERA AUTOPCION, S.A. DE C.V. SOFOM ENR|||2|CALZ. GRAL. MARIANO ESCOBEDO NO. 498 PISO 8|ANZURES|DISTRITO FEDERAL|MIGUEL HIDALGO|11590|CON080707DD4|2|52.28.70.00|01/01/1900||5432^5432^5432|34258|01|01|281000.00|$ 1,000,000 POR EVENTO|$    250,000 POR EVENTO|0.05|0.1|50000|$ 3,000,000 POR EVENTO|12|1
30|3|4125060977|0|3088|2016|W7B / ECOSPORT TITANIUM AT||6151294001|26/08/2017|26/08/2020|01|3|360|S/N GASOLINA|MAJUP3PF8GC150655|4EAB03G6|27735.42|420.00|1691.86|0.00|4775.56|0.00|0.00|0.00|34622.84|EVERARDO ALFONSO|REYES|VELAZQUEZ|1|CALATELLY 1|SANTA CATARINA DEL MONTE|ESTADO DE MEXICO|TEXCOCO|56245|REVE-851203-EQ2|1|5959233300|03/12/1985|alfonsoreyes@adgncontadores.com.mx|5432^5432^5432|34258|01|01|318400.00|$ 1,000,000 POR EVENTO|$    250,000 POR EVENTO|0.05|0.1|50000|$ 3,000,000 POR EVENTO|36|1
30|3|4125060942|0|3199|2016|X5D / FIGO IMPULSE TM A/A 4 PTAS W/DEFROSTER||6881266024|24/08/2017|24/08/2022|01|5|360|IMPORTADO|MAJFP1MD0GA114177|4F51P2PP|35210.30|420.00|6418.84|0.00|6727.86|0.00|0.00|0.00|48777.00|MAYRA|RODRIGUEZ|ALVA|1|SANTIAGO TAPIA 1019|MORELIA CENTRO|MICHOACAN|MORELIA|58000|ROAM-861103-UX9|1|4434459995|03/11/1986|HECTO.ARGUDIN1985@GMAIL.COM|5432^5432^5432|34258|01|01|174550.00|$ 1,000,000 POR EVENTO|$    250,000 POR EVENTO|0.05|0.1|50000|$ 3,000,000 POR EVENTO|60|1
30|3|4125060976|0|3088|2016|W7B / ECOSPORT TITANIUM AT||6151294001|26/08/2016|26/08/2017|01|1|0|S/N GASOLINA|MAJUP3PF8GC150655|4EAB03G6|9245.14|420.00|0.00|0.00|1546.42|0.00|0.00|0.00|11211.56|FINANCIERA AUTOPCION, S.A. DE C.V. SOFOM ENR|||2|CALZ. GRAL. MARIANO ESCOBEDO NO. 498 PISO 8|ANZURES|DISTRITO FEDERAL|MIGUEL HIDALGO|11590|CON080707DD4|2|52.28.70.00|01/01/1900||5432^5432^5432|34258|01|01|318400.00|$ 1,000,000 POR EVENTO|$    250,000 POR EVENTO|0.05|0.1|50000|$ 3,000,000 POR EVENTO|12|1
30|3|4125061038|0|3199|2016|X5D / FIGO IMPULSE TM A/A 4 PTAS W/DEFROSTER||6151231015|01/09/2017|01/09/2020|01|3|360|S/NGASOLINA|MAJFP1MD7GA121904|3ND2D5HO|21126.18|420.00|1288.70|0.00|3653.58|0.00|0.00|0.00|26488.46|CLAUDIA VERONICA|ROMERO|JAEN|1|PENSAMIENTOS EDIF 2 DEPTO 201|U HAB VALLE DE SANTA CRUZ|ESTADO DE MEXICO|TEXCOCO DE MORA|56120|ROJC710919|1|5959579215|19/09/1971|vero-jaen16@outlook.com|5432^5432^5432|34258|01|01|174550.00|$ 1,000,000 POR EVENTO|$    250,000 POR EVENTO|0.05|0.1|50000|$ 3,000,000 POR EVENTO|36|1
30|3|4125060955|0|13908|2016|K6D / F-350 KTP XLT 6.2L GAS MT||1371176505|22/08/2017|22/08/2021|01|4|360|SIN NUMERO|1FDEF3G61GED04639|59OK2FIF|59833.80|420.00|6061.16|0.00|10610.39|0.00|0.00|0.00|76925.35|EDGAR|MEJIA|HERNANDEZ|1|GORRION 8|LOMAS DE GUADALUPE|QUERETARO|SAN JUAN DEL RIO|76807|MEHE-910626-8H3|1|4272889317|26/06/1991|chepos_1977@live.com.mx|5432^5432^5432|34258|01|01|450300.00|$ 1,200,000 POR EVENTO|$    150,000 POR EVENTO|0.05|0.1|50000|$ 3,000,000 POR EVENTO|48|3
30|3|4125060969|0|8638|2016|X6A / FIGO ENERGY TA 5 PTAS W/DEFROSTER||6881227012|25/08/2017|25/08/2021|01|4|360|IMPORTADO|MAJFP1ND9GA117769|392LJ59G|31411.12|420.00|3181.95|0.00|5602.09|0.00|0.00|0.00|40615.16|JUAN ALBERTO|VITE|PIÑA|1|MANUEL SALES ZEPEDA 57|JESUS ROMERO FLORES|MICHOACAN|MORELIA|58128|VIPJ-800519-2F0|1|4433210333|19/05/1980|jalberto.javpa@life.com|5432^5432^5432|34258|01|01|202700.00|$ 1,000,000 POR EVENTO|$    250,000 POR EVENTO|0.05|0.1|50000|$ 3,000,000 POR EVENTO|48|1
30|2|PZR139680000|0|1497405|2017|J1E / RANGER XLT GAS CREW CAB||6971176503|23/08/2017|23/08/2021|01|4|360|SN|8AFWR5AA5H6433867||69419.52|400.00|0.00|0.00|11171.12|0.00|0.00|0.00|80990.64|GERARDO BERNARDO|ROJAS|PEDRAZA|1|RANCHO LA LAGUNA SN|SAN ANTONIO|ESTADO DE MEXICO|CUAUTITLAN IZCALLI|54720|ROPG-590820-6Q7|1|58806872|20/08/1959|gb200859@gmail.com|TA5192|29580|01|01|379900.00|0|0|0.05|0.1|0|0|48|2
30|2|PYR157540000|0|1497405|2017|J1E / RANGER XLT GAS CREW CAB||6971176503|23/08/2016|23/08/2017|01|1|0|SN|8AFWR5AA5H6433867||14166.67|400.00|0.00|0.00|2330.67|0.00|0.00|0.00|16897.34|FINANCIERA AUTOPCION, S.A. DE C.V. SOFOM ENR|||2|CALZ. GRAL. MARIANO ESCOBEDO NO. 498 PISO 8|ANZURES|DISTRITO FEDERAL|MIGUEL HIDALGO|11590|CON080707DD4|2|52.28.70.00|01/01/1900||TA5192|29580|01|01|379900.00|0|0|0.05|0.1|0|0|12|2
30|2|PZR139700000|0|1718701|2016|X5B / FIGO IMPULSE TA A/A 4 PTAS W/DEFROSTER||6971223065|23/08/2017|23/08/2021|01|4|360|SN|MAJFP1MD2GA112205||37396.07|400.00|0.00|0.00|6047.37|0.00|0.00|0.00|43843.44|ANA LUISA|HONORATO|RODRIGUEZ|1|MARTIRES DE RIO BLANCO 18 B|MELCHOR OCAMPO|ESTADO DE MEXICO|MELCHOR OCAMPO|54880|HORA-720819-EG6|1|5558784409|19/08/1972|analuisahonorato_r72@live.com|TA6110|29580|01|01|192800.00|0|0|0.05|0.1|0|0|48|1
30|3|4125061063|0|3071|2016|F2B / FIESTA SE TM 5 PTAS||6881266025|03/09/2017|03/09/2022|01|5|360|NACIONAL|3FADP4EJ8GM177284|2J32K4IG|41164.70|420.00|7504.32|0.00|7854.24|0.00|0.00|0.00|56943.26|JOSE|MARIN|CORTEZ|1|ALFREDO LEON 17|LA REGADERA|MICHOACAN|CIUDAD HIDALGO|61166|MACJ-690412-6X2|1|7861542538|12/04/1969|MARINJO_04@HOTMAIL.COM|5432^5432^5432|34258|01|01|215900.00|$ 1,000,000 POR EVENTO|$    250,000 POR EVENTO|0.05|0.1|50000|$ 3,000,000 POR EVENTO|60|1
30|2|PYR157570000|0|1718701|2016|X5B / FIGO IMPULSE TA A/A 4 PTAS W/DEFROSTER||6971223065|23/08/2016|23/08/2017|01|1|0|SN|MAJFP1MD2GA112205||7631.54|400.00|0.00|0.00|1285.05|0.00|0.00|0.00|9316.59|FINANCIERA AUTOPCION, S.A. DE C.V. SOFOM ENR|||2|CALZ. GRAL. MARIANO ESCOBEDO NO. 498 PISO 8|ANZURES|DISTRITO FEDERAL|MIGUEL HIDALGO|11590|CON080707DD4|2|52.28.70.00|01/01/1900||TA6110|29580|01|01|192800.00|0|0|0.05|0.1|0|0|12|1
30|2|PZR139710000|0|1426201|2016|F2C / FIESTA SE TA 4 PTAS||6971280025|23/08/2017|23/08/2020|01|3|360|SN|3FADP4BJ9GM168842||30430.45|400.00|0.00|0.00|4932.87|0.00|0.00|0.00|35763.32|RUBEN|SOTO|HERRERA|1|DALIA 25|LOS MORALES|ESTADO DE MEXICO|CUAUTITLAN|54800|SOHR-650409-000|1|58724217|09/04/1965|l-medrano@hotmail.com|TA6110|29580|01|01|234000.00|0|0|0.05|0.1|0|0|36|1
30|2|PYR157580000|0|1426201|2016|F2C / FIESTA SE TA 4 PTAS||6971280025|23/08/2016|23/08/2017|01|1|0|SN|3FADP4BJ9GM168842||8859.71|400.00|0.00|0.00|1481.55|0.00|0.00|0.00|10741.26|FINANCIERA AUTOPCION, S.A. DE C.V. SOFOM ENR|||2|CALZ. GRAL. MARIANO ESCOBEDO NO. 498 PISO 8|ANZURES|DISTRITO FEDERAL|MIGUEL HIDALGO|11590|CON080707DD4|2|52.28.70.00|01/01/1900||TA6110|29580|01|01|234000.00|0|0|0.05|0.1|0|0|12|1
30|2|PZR139730000|0|1712901|2016|F5B / FIESTA ST 5 PTAS TM 5 PTAS||6971293001|26/08/2017|26/08/2021|01|4|360|SN|3FADP4GX0GM179595||60651.20|400.00|0.00|0.00|9768.19|0.00|0.00|0.00|70819.39|JULIO CESAR|RUBIO|BUSTOS|1|PROLONGACION CHIAPAS 5|SAN JUAN ATLAMICA|ESTADO DE MEXICO|CUAUTITLAN|54800|RUBJ-860901-T56|1|5558171797|01/09/1986|julio_cesar_rubio@live.com.mx|TA6110|29580|01|01|352000.00|0|0|0.05|0.1|0|0|48|1
30|2|PYR157700000|0|1712901|2016|F5B / FIESTA ST 5 PTAS TM 5 PTAS||6971293001|26/08/2016|26/08/2017|01|1|0|SN|3FADP4GX0GM179595||12377.29|400.00|0.00|0.00|2044.37|0.00|0.00|0.00|14821.66|FINANCIERA AUTOPCION, S.A. DE C.V. SOFOM ENR|||2|CALZ. GRAL. MARIANO ESCOBEDO NO. 498 PISO 8|ANZURES|DISTRITO FEDERAL|MIGUEL HIDALGO|11590|CON080707DD4|2|52.28.70.00|01/01/1900||TA6110|29580|01|01|352000.00|0|0|0.05|0.1|0|0|12|1
30|3|4125060953|0|3199|2016|X5D / FIGO IMPULSE TM A/A 4 PTAS W/DEFROSTER||7771238164|25/08/2017|25/08/2021|01|4|360|HECHO EN INDIA|MAJFP1MD5GA119648|32MD88M0|28168.24|420.00|2853.44|0.00|5030.67|0.00|0.00|0.00|36472.35|PASCUALITA|CORTEZ|NERI|1|PENSADOR MEXICANO 213 A|LA MIRA|GUERRERO|ACAPULCO DE JUAREZ|39480|CONP-610222-UA3|1|7444834311|22/02/1961|fernandomontesdeoca1@hotmail.com|5432^5432^5432|34258|01|01|174550.00|$ 1,000,000 POR EVENTO|$    250,000 POR EVENTO|0.05|0.1|50000|$ 3,000,000 POR EVENTO|48|1
30|3|4125061021|0|8635|2016|X5C / FIGO IMPULSE TM A/A 5 PTAS W/DEFROSTER||7771216076|02/09/2017|02/09/2021|01|4|360|HECHO EN INDIA|MAJFP1ND8GA110635|4DJCA59K|27753.52|420.00|2811.43|0.00|4957.59|0.00|0.00|0.00|35942.54|YANELI|ALCARAZ|MOYA|1|16 DE SEPTIEMBRE 715|20 DE NOVIEMBRE|GUERRERO|ACAPULCO DE JUAREZ|39660|AAMY-840310-UN3|1|017444612110|10/03/1984|betto_parra@hotmail.es|5432^5432^5432|34258|01|01|170950.00|$ 1,000,000 POR EVENTO|$    250,000 POR EVENTO|0.05|0.1|50000|$ 3,000,000 POR EVENTO|48|1
30|3|4125061053|0|1925|2016|F2C / FIESTA SE TA 4 PTAS||7771278011|04/09/2017|04/09/2021|01|4|360|HECHO EN MEXICO|3FADP4BJ3GM161241|5HNN6N2L|35016.88|420.00|3547.21|0.00|6237.45|0.00|0.00|0.00|45221.54|MARIO ASCENCION|GUZMAN|ORTIZ|1|AMADO NERVO 1|MARBELLA|GUERRERO|ACAPULCO DE JUAREZ|39450|GUOM-670911-JA6|1|7444464173|11/09/1967|marioascenguzman@gmail.com|5432^5432^5432|34258|01|01|234000.00|$ 1,000,000 POR EVENTO|$    250,000 POR EVENTO|0.05|0.1|50000|$ 3,000,000 POR EVENTO|48|1
30|3|4125061080|0|3199|2016|X5D / FIGO IMPULSE TM A/A 4 PTAS W/DEFROSTER||7771280040|06/09/2017|06/09/2020|01|3|360|HECHO EN INDIA|MAJFP1MD6GA120856|3FJGK96A|21126.18|420.00|1288.70|0.00|3653.58|0.00|0.00|0.00|26488.46|XOCHILT|GALEANA|GUZMAN|1|DEL CANAL 99|LA PROVIDENCIA|GUERRERO|ACAPULCO DE JUAREZ|39620|GAGX-730428-M39|1|7441903378|28/04/1973|credito-aca@poliformas.mx|5432^5432^5432|34258|01|01|174550.00|$ 1,000,000 POR EVENTO|$    250,000 POR EVENTO|0.05|0.1|50000|$ 3,000,000 POR EVENTO|36|1
30|3|4125060961|0|13101|2017|J1E / RANGER XLT GAS CREW CAB||4571176497|26/08/2017|26/08/2021|01|4|360|SN|8AFWR5AA0H6430522|4NLOLBKK|57195.80|420.00|5793.93|0.00|10145.56|0.00|0.00|0.00|73555.29|SIBIL GABRIELA|ASTORGA|ARCE|1|FELIPE ANGELES ESQ. DEGOLLADO 0|CENTRO|BAJA CALIFORNIA SUR|CIUDAD CONSTITUCION (VILLA CONSTITUCION)|23600|AOAS-781030-MA2|1|6131090329|30/10/1978|alberto_maita12@hotmail.com|5432^5432^5432|34258|01|01|379900.00|$ 1,200,000 POR EVENTO|$    150,000 POR EVENTO|0.05|0.1|50000|$ 3,000,000 POR EVENTO|48|2
30|3|4125061017|0|3257|2016|W8B / ECOSPORT TREND AT||4471275008|31/08/2017|31/08/2021|01|4|360|151897|MAJUP3SF5GC151897|4FI4C001|33805.88|420.00|3424.54|0.00|6024.07|0.00|0.00|0.00|43674.49|SILVIA JOSEFINA|SALAZAR|GIL|1|GERANIOS 145|SALTILLO 2000|COAHUILA|SALTILLO|25115|SAGS-740321-2JA|1|8442859327|21/03/1974|NANY1219@HOTMAIL.COM|5432^5432^5432|34258|01|01|283000.00|$ 1,000,000 POR EVENTO|$    250,000 POR EVENTO|0.05|0.1|50000|$ 3,000,000 POR EVENTO|48|1
30|2|PZR139720000|0|1718901|2016|X5C / FIGO IMPULSE TM A/A 5 PTAS W/DEFROSTER||6061216072|27/08/2017|27/08/2021|01|4|360|HECHO EN INDIA|MAJFP1ND4GA114780|5E3NC7K6|34204.33|400.00|0.00|0.00|5536.69|0.00|0.00|0.00|40141.02|OSCAR|ESCOBEDO|CARMONA|1|CHIMALPOPOCA 3|LOMA COLORADA|ESTADO DE MEXICO|NAUCALPAN DE JUAREZ|53420|EOCO-861019-444|1|5536040513|19/10/1986|OSCAR_QFB@HOTMAIL.COM.MX|TA6110|29580|01|01|170950.00|0|0|0.05|0.1|0|0|48|1
30|3|4125061016|0|3257|2016|W8B / ECOSPORT TREND AT||4471275008|31/08/2016|31/08/2017|01|1|0|151897|MAJUP3SF5GC151897|4FI4C001|8451.47|420.00|0.00|0.00|1419.44|0.00|0.00|0.00|10290.91|FINANCIERA AUTOPCION, S.A. DE C.V. SOFOM ENR|||2|CALZ. GRAL. MARIANO ESCOBEDO NO. 498 PISO 8|ANZURES|DISTRITO FEDERAL|MIGUEL HIDALGO|11590|CON080707DD4|2|52.28.70.00|01/01/1900||5432^5432^5432|34259|01|01|283000.00|$ 1,000,000 POR EVENTO|$    250,000 POR EVENTO|0.05|0.1|50000|$ 3,000,000 POR EVENTO|12|1
30|3|4125061026|0|1925|2016|F2C / FIESTA SE TA 4 PTAS||4571278009|31/08/2017|31/08/2021|01|4|360|SN|3FADP4BJ0GM181818|3K1BJ6BJ|35016.88|420.00|3547.21|0.00|6237.45|0.00|0.00|0.00|45221.54|LUZ ARIANA|ROJAS|TLALTZICAPA|1|SINDICALISMO ENTRE PERA Y PROL. SINDIC. 23078|EMBOTELLADORES|BAJA CALIFORNIA SUR|LA PAZ|23078|ROTL-880511-9H1|1|6121994774|11/05/1988|arianarojas26@hotmail.com|5432^5432^5432|34258|01|01|234000.00|$ 1,000,000 POR EVENTO|$    250,000 POR EVENTO|0.05|0.1|50000|$ 3,000,000 POR EVENTO|48|1
30|2|PYR157690000|0|1718901|2016|X5C / FIGO IMPULSE TM A/A 5 PTAS W/DEFROSTER||6061216072|27/08/2016|27/08/2017|01|1|0|HECHO EN INDIA|MAJFP1ND4GA114780|5E3NC7K6|6980.19|400.00|0.00|0.00|1180.83|0.00|0.00|0.00|8561.02|FINANCIERA AUTOPCION, S.A. DE C.V. SOFOM ENR|||2|CALZ. GRAL. MARIANO ESCOBEDO NO. 498 PISO 8|ANZURES|DISTRITO FEDERAL|MIGUEL HIDALGO|11590|CON080707DD4|2|52.28.70.00|01/01/1900||TA6110|29580|01|01|170950.00|0|0|0.05|0.1|0|0|12|1
30|3|4125061020|0|3199|2016|X5D / FIGO IMPULSE TM A/A 4 PTAS W/DEFROSTER||4471266027|29/08/2017|29/08/2022|01|5|360|119314|MAJFP1MD9GA119314|34N9NKJN|35210.30|420.00|6418.84|0.00|6727.86|0.00|0.00|0.00|48777.00|JULIO CESAR|GUILLERMO|HERRERA|1|LA ACEQUIA 565|LA MAGUEYADA|COAHUILA|SALTILLO|25137|GUHJ-820913-CG4|1|8444163736|13/09/1982|JULIO.GUILLERMO@ARCACONTAL.COM|5432^5432^5432|34258|01|01|174550.00|$ 1,000,000 POR EVENTO|$    250,000 POR EVENTO|0.05|0.1|50000|$ 3,000,000 POR EVENTO|60|1
30|3|4125061027|0|8635|2016|X5C / FIGO IMPULSE TM A/A 5 PTAS W/DEFROSTER||0271216077|02/09/2017|02/09/2021|01|4|360|HECHOENINDIA|MAJFP1ND7GA114112|5D058A6L|27753.52|420.00|2811.43|0.00|4957.59|0.00|0.00|0.00|35942.54|ALFREDO|HURTADO|BARROSO|1|CAMPANULAS 20|BRISAS DE CUAUTLA|MORELOS|CUAUTLA|62757|HUBA-540903-A70|1|7353014156|03/09/1954|misterjorge132@gmail.com|5432^5432^5432|34258|01|01|170950.00|$ 1,000,000 POR EVENTO|$    250,000 POR EVENTO|0.05|0.1|50000|$ 3,000,000 POR EVENTO|48|1
30|3|4125061031|0|8635|2016|X5C / FIGO IMPULSE TM A/A 5 PTAS W/DEFROSTER||0271216066|02/09/2017|02/09/2021|01|4|360|HECHO EN INDIA|MAJFP1ND6GA113730|4F29IKG6|27753.52|420.00|2811.43|0.00|4957.59|0.00|0.00|0.00|35942.54|JANET INES|FERREIRA|PATRON|1|VOLCAN MZ1 LT 1|LOS VOLCANES|DISTRITO FEDERAL|TLALPAN|14440|FEPJ-831116-M29|1|5554856222|16/11/1983|jferreira@promoda.com.mx|5432^5432^5432|34258|01|01|170950.00|$ 1,000,000 POR EVENTO|$    250,000 POR EVENTO|0.05|0.1|50000|$ 3,000,000 POR EVENTO|48|1
30|3|4125060939|0|3377|2016|C4A / FUSION TITANIUM PLUS 2L GTDI||2971280027|23/08/2017|23/08/2020|01|3|360|HECHO EN MEXICO|3FA6P0K9XGR271231|4D7F74IG|31975.41|420.00|1950.50|0.00|5495.35|0.00|0.00|0.00|39841.26|HECTOR|VILLAMAR|MIJARES|1|OMEGA 601 C|INDUSTRIALDELTA|GUANAJUATO|LEON DE LOS ALDAMA (LEON)|37545|VIMH-761216-LJ5|1|4773293074|16/12/1976|hector_villamar@yahoo.com|5432^5432^5432|34258|01|01|435000.00|$ 1,000,000 POR EVENTO|$    250,000 POR EVENTO|0.05|0.1|50000|$ 3,000,000 POR EVENTO|36|1
30|3|4125060973|0|3699|2015|D3B / EDGE SEL||2971176499|27/08/2017|27/08/2021|01|4|360|HECHO EN CANADA|2FMTK3J81FBB07414|4AC596D7|56855.24|420.00|5759.44|0.00|10085.55|0.00|0.00|0.00|73120.23|CESAR ALBERTO|AVALOS|RANGEL|1|GUTY CARDENAS 1627|ARBOLEDAS|GUANAJUATO|LEON DE LOS ALDAMA (LEON)|37480|AARC-750512-NH8|1|4771408548|12/05/1975|cavalos75@gmail.com|5432^5432^5432|34258|01|01|460000.00|$ 1,000,000 POR EVENTO|$    250,000 POR EVENTO|0.05|0.1|50000|$ 3,000,000 POR EVENTO|48|1
30|3|4125060972|0|3699|2015|D3B / EDGE SEL||2971176499|27/08/2016|27/08/2017|01|1|0|HECHO EN CANADA|2FMTK3J81FBB07414|4AC596D7|14213.81|420.00|0.00|0.00|2341.41|0.00|0.00|0.00|16975.22|FINANCIERA AUTOPCION, S.A. DE C.V. SOFOM ENR|||2|CALZ. GRAL. MARIANO ESCOBEDO NO. 498 PISO 8|ANZURES|DISTRITO FEDERAL|MIGUEL HIDALGO|11590|CON080707DD4|2|52.28.70.00|01/01/1900||5432^5432^5432|34259|01|01|460000.00|$ 1,000,000 POR EVENTO|$    250,000 POR EVENTO|0.05|0.1|50000|$ 3,000,000 POR EVENTO|12|1
30|3|4125060943|0|3199|2016|X5D / FIGO IMPULSE TM A/A 4 PTAS W/DEFROSTER||0341238167|22/08/2017|22/08/2021|01|4|360|119187|MAJFP1MD6GA119187|49988B41|28168.24|420.00|2853.44|0.00|5030.67|0.00|0.00|0.00|36472.35|WILLIAM OVIDIO|IBARRA|CORREA|1|FRANCISCO I MADERO 100|EJ 8 DE ENERO|COAHUILA|FRONTERA|25800|IACW-940627-6C0|1|8666333773|27/06/1994|WILLIAM.IBARRA07@HOTMAIL.COM|5432^5432^5432|34258|01|01|174550.00|$ 1,000,000 POR EVENTO|$    250,000 POR EVENTO|0.05|0.1|50000|$ 3,000,000 POR EVENTO|48|1
30|3|4125060997|0|8632|2016|X6D / FIGO ENERGY TM 4 PTAS W/DEFROSTER||0341225079|26/08/2017|26/08/2021|01|4|360|119815|MAJFP1MD9GA119815|4C0H057J|29809.84|420.00|3019.74|0.00|5319.93|0.00|0.00|0.00|38569.51|LUCIANO|CARLIN|LOPEZ|1|JORGE ENGEL NO. 1220|OBRERA SUR|COAHUILA|MONCLOVA|25790|CALL-730423-FJ2|1|8661779758|23/04/1973|irving.carlin@arcacontal.com|5432^5432^5432|34258|01|01|188800.00|$ 1,000,000 POR EVENTO|$    250,000 POR EVENTO|0.05|0.1|50000|$ 3,000,000 POR EVENTO|48|1
30|2|PZR139750000|0|1718701|2016|X6C / FIGO ENERGY TA 4 PTAS W/DEFROSTER||4931280021|25/08/2017|25/08/2020|01|3|360|SN|MAJFP1MD5GA118144|45JMGAMK|27532.86|400.00|0.00|0.00|4469.26|0.00|0.00|0.00|32402.12|BLANCA EDITH|ALVAREZ|VALLE|1|1A CERRADA PUERTO MEXICO 36 5|ZENTLAPATL|DISTRITO FEDERAL|CUAJIMALPA DE MORELOS|05010|AAVB-611210-MM5|1|65854251|10/12/1961|chiquita_kalpilli@hotmail.com|TA6110|29580|01|01|205700.00|0|0|0.05|0.1|0|0|36|1
30|2|PYR157880000|0|1718701|2016|X6C / FIGO ENERGY TA 4 PTAS W/DEFROSTER||4931280021|25/08/2016|25/08/2017|01|1|0|SN|MAJFP1MD5GA118144|45JMGAMK|8016.09|400.00|0.00|0.00|1346.57|0.00|0.00|0.00|9762.66|FINANCIERA AUTOPCION, S.A. DE C.V. SOFOM ENR|||2|CALZ. GRAL. MARIANO ESCOBEDO NO. 498 PISO 8|ANZURES|DISTRITO FEDERAL|MIGUEL HIDALGO|11590|CON080707DD4|2|52.28.70.00|01/01/1900||TA6110|29580|01|01|205700.00|0|0|0.05|0.1|0|0|12|1
30|2|PZR139760000|0|1718701|2016|X6C / FIGO ENERGY TA 4 PTAS W/DEFROSTER||4931094084|30/08/2017|30/08/2020|01|3|360|SN|MAJFP1MD8GA118123|2GE3JMLJ|27532.86|400.00|0.00|0.00|4469.26|0.00|0.00|0.00|32402.12|ELIZABETH|MORALES|AVILA|1|VASCO DE GAMA LTE 4 MZ34|LOMAS DE CAPULA|DISTRITO FEDERAL|ALVARO OBREGON|01270|MOAE-830505-MR7|1|65465036|05/05/1983|elizamorales0055@gmail.com|TA6110|29580|01|01|205700.00|0|0|0.05|0.1|0|0|36|1
30|2|PYR158140000|0|1718701|2016|X6C / FIGO ENERGY TA 4 PTAS W/DEFROSTER||4931094084|30/08/2016|30/08/2017|01|1|0|SN|MAJFP1MD8GA118123|2GE3JMLJ|8016.09|400.00|0.00|0.00|1346.57|0.00|0.00|0.00|9762.66|FINANCIERA AUTOPCION, S.A. DE C.V. SOFOM ENR|||2|CALZ. GRAL. MARIANO ESCOBEDO NO. 498 PISO 8|ANZURES|DISTRITO FEDERAL|MIGUEL HIDALGO|11590|CON080707DD4|2|52.28.70.00|01/01/1900||TA6110|29580|01|01|205700.00|0|0|0.05|0.1|0|0|12|1
30|2|PZR139780000|0|1715701|2016|F2B / FIESTA SE TM 5 PTAS||4931094086|30/08/2017|30/08/2020|01|3|360|SN|3FADP4EJ8GM191976|3GFMBPAO|28577.22|400.00|0.00|0.00|4636.36|0.00|0.00|0.00|33613.58|GRISEL TERESA|NAVA|JAIME|1|LEANDRO VALLE 80|SAN LORENZO ACOPILCO|DISTRITO FEDERAL|CUAJIMALPA DE MORELOS|05410|NAJG-160830-FG2|1|58114408|30/08/2016|grisel.nava@semarnat.gob.mx|TA6110|29580|01|01|215900.00|0|0|0.05|0.1|0|0|36|1
30|2|PYR158190000|0|1715701|2016|F2B / FIESTA SE TM 5 PTAS||4931094086|30/08/2016|30/08/2017|01|1|0|SN|3FADP4EJ8GM191976|3GFMBPAO|8320.15|400.00|0.00|0.00|1395.22|0.00|0.00|0.00|10115.37|FINANCIERA AUTOPCION, S.A. DE C.V. SOFOM ENR|||2|CALZ. GRAL. MARIANO ESCOBEDO NO. 498 PISO 8|ANZURES|DISTRITO FEDERAL|MIGUEL HIDALGO|11590|CON080707DD4|2|52.28.70.00|01/01/1900||TA6110|29580|01|01|215900.00|0|0|0.05|0.1|0|0|12|1
30|3|4125060985|0|8631|2016|X5B / FIGO IMPULSE TA A/A 4 PTAS W/DEFROSTER||6411176517|25/08/2017|25/08/2021|01|4|360|SN|MAJFP1MD2GA121535|3OKALAEO|30270.64|420.00|3066.42|0.00|5401.13|0.00|0.00|0.00|39158.19|CUAUHTEMOC|PALACIOS|ARCE|1|CTO PASEO DEL MAYAB MZA 24 LT 12 SN|REG 514|QUINTANA ROO|CANCUN|77535|PAAC-771014-ET9|1|9981319033|14/10/1977|CPA1977@HOTMAIL.COM|5432^5432^5432|34258|01|01|192800.00|$ 1,000,000 POR EVENTO|$    250,000 POR EVENTO|0.05|0.1|50000|$ 3,000,000 POR EVENTO|48|1
30|3|4125061039|0|8637|2016|X6B / FIGO ENERGY TM 5 PTAS W/DEFROSTER||6411187068|30/08/2017|30/08/2021|01|4|360|SN|MAJFP1ND3GA118075|425FN265|29395.12|420.00|2977.73|0.00|5246.86|0.00|0.00|0.00|38039.71|MARISSE GUADALUPE|ACEVEDO|DIAZ|1|CLLE ARROYO MZ 14 LT 2 C 75 A|REG 513|QUINTANA ROO|CANCUN|77535|AEDM-951222-CS0|1|9981239174|22/12/1995|MARYSOLAIRE@HOTMAIL.COM|5432^5432^5432|34258|01|01|185200.00|$ 1,000,000 POR EVENTO|$    250,000 POR EVENTO|0.05|0.1|50000|$ 3,000,000 POR EVENTO|48|1
30|3|4125060936|0|13037|2014|J8B / F-150 XL CREW CAB 4x2 5.0L V8||0531280017|22/08/2017|22/08/2020|01|3|360|G16764|1FTFW1CF6EKG16764||39293.13|420.00|2396.88|0.00|6737.60|0.00|0.00|0.00|48847.61|AJ MONINA CONTRATISTAS SA DE CV|||2|KELVIN 8 602|ANZURES|DISTRITO FEDERAL|MIGUEL HIDALGO|11590|JMC120525D20|2|55435426|01/01/1900|ajmonina@hotmail.com|5432^5432^5432|34258|01|01|367500.00|$ 1,200,000 POR EVENTO|$    150,000 POR EVENTO|0.05|0.1|50000|$ 3,000,000 POR EVENTO|36|2
30|3|4125060935|0|13037|2014|J8B / F-150 XL CREW CAB 4x2 5.0L V8||0531280017|22/08/2016|22/08/2017|01|1|0|G16764|1FTFW1CF6EKG16764||13097.71|420.00|0.00|0.00|2162.83|0.00|0.00|0.00|15680.54|FINANCIERA AUTOPCION, S.A. DE C.V. SOFOM ENR|||2|CALZ. GRAL. MARIANO ESCOBEDO NO. 498 PISO 8|ANZURES|DISTRITO FEDERAL|MIGUEL HIDALGO|11590|CON080707DD4|2|52.28.70.00|01/01/1900||5432^5432^5432|34259|01|01|367500.00|$ 1,200,000 POR EVENTO|$    150,000 POR EVENTO|0.05|0.1|50000|$ 3,000,000 POR EVENTO|12|2
30|3|4125061037|0|13225|2017|J1L / RANGER XLT CREW CAB AT DIESEL 4X4||0531280031|30/08/2017|30/08/2020|01|3|360|433256|8AFWR5DV0H6433256||56351.85|420.00|3437.46|0.00|9633.49|0.00|0.00|0.00|69842.80|MARIANA|PONCE|ARRIOLA|1|DESUERTI DE LOS LEONES 5414 4101|TETELPAN|DISTRITO FEDERAL|ALVARO OBREGON|01700|POAM-821208-GK4|1|59158658|08/12/1982|marif_p@yahoo.com.mx|5432^5432^5432|34258|01|01|529900.00|$ 1,200,000 POR EVENTO|$    150,000 POR EVENTO|0.05|0.1|50000|$ 3,000,000 POR EVENTO|36|2
30|3|4125061071|0|3074|2016|F2A / FIESTA SE TA 5 PTAS||5111280042|03/09/2017|03/09/2020|01|3|360|S/N|3FADP4BJXGM191997|3NGFFFEN|24698.82|420.00|1506.63|0.00|4260.07|0.00|0.00|0.00|30885.52|SERGIO ALBERTO|CERVANTES|AYALA|1|EDIF H DEPTO 201|LOS REYES IXTACALA|ESTADO DE MEXICO|TLALNEPANTLA DE BAZ|54090|CEAS-681207-S70|1|53181396|07/12/1968|SCERVANTESAYALA@YAHOO.COM.MX|5432^5432^5432|34258|01|01|215900.00|$ 1,000,000 POR EVENTO|$    250,000 POR EVENTO|0.05|0.1|50000|$ 3,000,000 POR EVENTO|36|1
30|2|PYR158400000|0|1715601|2016|F2A / FIESTA SE TA 5 PTAS||5111280042|03/09/2016|03/09/2017|01|1|0|S/N|3FADP4BJXGM191997|3NGFFFEN|8119.26|400.00|0.00|0.00|1363.08|0.00|0.00|0.00|9882.34|FINANCIERA AUTOPCION, S.A. DE C.V. SOFOM ENR|||2|CALZ. GRAL. MARIANO ESCOBEDO NO. 498 PISO 8|ANZURES|DISTRITO FEDERAL|MIGUEL HIDALGO|11590|CON080707DD4|2|52.28.70.00|01/01/1900||TA6111|29580|01|01|215900.00|0|0|0.05|0.1|0|0|12|1
30|2|PXR015770000|0|1497305|2015|J1R / RANGER XL GAS CREW CAB W/FRONT AIR BAGS||0201133033|09/10/2015|09/10/2017|01|2|360|S/N|8AFRR5AA8F6346166||25122.17|400.00|0.00|0.00|4083.55|0.00|0.00|0.00|29605.72|TECHINCAL CONSTRUCTION SERVICES, S.A. DE C.V.|||2|LOS NOGALES 10|SAN LORENZO|HIDALGO|TULA DE ALLENDE|42803|TCS070306JXA|2|5518859184|01/01/1900|carowong.teconse07@hotmail.com|TA5192|29580|01|01|295500.00|0|0|0.05|0.1|0|0|24|2
30|3|4125060994|0|8786|2017|MPG / MUSTANG V8 TM||6981280030|26/08/2017|26/08/2020|01|3|360|SN|1FA6P8CF7H5201192||61903.17|420.00|3776.09|0.00|10575.88|0.00|0.00|0.00|76675.14|DISTRIBUCIONES COMERCIALES DE OAXACA SA DE CV|||2|PROLONGACION  DE ARISTA 600|CENTRO|OAXACA|OAXACA (OAXACA DE JUAREZ)|68000|DCO9103136P8|2|9511351607|01/01/1900|dicosa@hotmail.com|5432^5432^5432|34258|01|01|596900.00|$ 1,000,000 POR EVENTO|$    250,000 POR EVENTO|0.05|0.1|50000|$ 3,000,000 POR EVENTO|36|1
30|3|4125060993|0|8786|2017|MPG / MUSTANG V8 TM||6981280030|26/08/2016|26/08/2017|01|1|0|SN|1FA6P8CF7H5201192||20634.39|420.00|0.00|0.00|3368.70|0.00|0.00|0.00|24423.09|FINANCIERA AUTOPCION, S.A. DE C.V. SOFOM ENR|||2|CALZ. GRAL. MARIANO ESCOBEDO NO. 498 PISO 8|ANZURES|DISTRITO FEDERAL|MIGUEL HIDALGO|11590|CON080707DD4|2|52.28.70.00|01/01/1900||5432^5432^5432|34258|01|01|596900.00|$ 1,000,000 POR EVENTO|$    250,000 POR EVENTO|0.05|0.1|50000|$ 3,000,000 POR EVENTO|12|1
30|3|4125061018|0|8634|2016|X7A / FIGO TITANIUM W/DEFROSTER||6981266023|29/08/2017|29/08/2022|01|5|360|SN|MAJFP1PD5GA122397||41135.90|420.00|7499.07|0.00|7848.80|0.00|0.00|0.00|56903.77|SANDY JANET|RODRIGUEZ|MARTINEZ|1|IGNACIO MARISCAL 43|ISSTSE|OAXACA|OAXACA (OAXACA DE JUAREZ)|68040|ROMS-880701-R79|1|9511276621|01/07/1988|ARENNITA_ROMSS@HOTMAIL.COM|5432^5432^5432|34258|01|01|215700.00|$ 1,000,000 POR EVENTO|$    250,000 POR EVENTO|0.05|0.1|50000|$ 3,000,000 POR EVENTO|60|1
30|2|PZR139770000|0|1496105|2016|G2F/1 / LOBO XLT REG CAB 4x2 CON SPRAY-IN BEDLINER||6981280020|30/08/2017|30/08/2020|01|3|360|SN|1FTMF1CF9GKF24154||62418.60|400.00|0.00|0.00|10050.98|0.00|0.00|0.00|72869.58|INGENIERIA ELECTRICA ALTERNATIVA SUSTENTABLE SA DE CV|||2|MIGUEL CABRERA 600|CENTRO|OAXACA|OAXACA (OAXACA DE JUAREZ)|68000|IEA081010376|2|9515168771|01/01/1900|ieasaoax02@gmail.com|TA5192|29580|01|01|519200.00|0|0|0.05|0.1|0|0|36|2
30|2|PYR158170000|0|1496105|2016|G2F/1 / LOBO XLT REG CAB 4x2 CON SPRAY-IN BEDLINER||6981280020|30/08/2016|30/08/2017|01|1|0|SN|1FTMF1CF9GKF24154||18172.94|400.00|0.00|0.00|2971.67|0.00|0.00|0.00|21544.61|FINANCIERA AUTOPCION, S.A. DE C.V. SOFOM ENR|||2|CALZ. GRAL. MARIANO ESCOBEDO NO. 498 PISO 8|ANZURES|DISTRITO FEDERAL|MIGUEL HIDALGO|11590|CON080707DD4|2|52.28.70.00|01/01/1900||TA5192|29580|01|01|519200.00|0|0|0.05|0.1|0|0|12|2
30|3|4125061046|0|3199|2016|X5D / FIGO IMPULSE TM A/A 4 PTAS W/DEFROSTER||6981211007|30/08/2017|30/08/2021|01|4|360|SN|MAJFP1MD6GA119576||28168.24|420.00|2853.44|0.00|5030.67|0.00|0.00|0.00|36472.35|MARCO ANTONIO|REYES|HERNANDEZ|1|SAUCES 104|REFORMA|OAXACA|OAXACA (OAXACA DE JUAREZ)|68050|REHM-860923-DM3|1|9511578335|23/09/1986|sijimarcooax@hotmail.com|5432^5432^5432|34258|01|01|174550.00|$ 1,000,000 POR EVENTO|$    250,000 POR EVENTO|0.05|0.1|50000|$ 3,000,000 POR EVENTO|48|1
30|3|4125060980|0|1925|2016|F2C / FIESTA SE TA 4 PTAS||3931278002|25/08/2017|25/08/2021|01|4|360|NO APLICA|3FADP4BJ1GM179673|39M93P4N|35016.88|420.00|3547.21|0.00|6237.45|0.00|0.00|0.00|45221.54|MIGUEL ANGEL|PINZON|OCAÑA|1|IGNACIO DE LA LLAVE 1406-A|MARIA DE LA PIEDAD|VERACRUZ|COATZACOALCOS|96410|PIOM-761221-UY8|1|019212143076|21/12/1976|pinzon_mike@hotmail.com|5432^5432^5432|34258|01|01|234000.00|$ 1,000,000 POR EVENTO|$    250,000 POR EVENTO|0.05|0.1|50000|$ 3,000,000 POR EVENTO|48|1
30|3|4125061050|0|8634|2016|X7A / FIGO TITANIUM W/DEFROSTER||6981237043|31/08/2017|31/08/2021|01|4|360|SN|MAJFP1PD2GA124706||32908.72|420.00|3333.65|0.00|5865.98|0.00|0.00|0.00|42528.35|NANCY ABIGAIL|VALDES|SANTIAGO|1|CARRETERA INTERNACIONAL KM 33|CENTRO|OAXACA|TLACOLULA DE MATAMOROS|70400|VASN-860916-PU2|1|9511064567|16/09/1986|pirncess86ol@hotmail.com|5432^5432^5432|34258|01|01|215700.00|$ 1,000,000 POR EVENTO|$    250,000 POR EVENTO|0.05|0.1|50000|$ 3,000,000 POR EVENTO|48|1
30|3|4125060998|0|8638|2016|X6A / FIGO ENERGY TA 5 PTAS W/DEFROSTER||3381227013|26/08/2016|26/08/2021|01|5|360|S/N|MAJFP1NDXGA115108||41049.55|420.00|7483.33|0.00|7832.46|0.00|0.00|0.00|56785.34|GENOVEVA|MENDEZ|GUZMAN|1|XOMALI 54 202|HACIENDA SAN JUAN|DISTRITO FEDERAL|TLALPAN|14370|MEGG-850102-8I3|1|65536955|02/01/1985|genovevamg@hotmal.com|5432^5432^5432|34258|01|01|202700.00|$ 1,000,000 POR EVENTO|$    250,000 POR EVENTO|0.05|0.1|50000|$ 3,000,000 POR EVENTO|60|1
30|3|4125061035|0|1924|2016|F2D/2 / FIESTA SE TM 4 PTAS SIN QUEMACOCOS||6931272021|31/08/2017|31/08/2021|01|4|360|S/N|3FADP4BJ5GM186545||32355.76|420.00|3277.64|0.00|5768.54|0.00|0.00|0.00|41821.94|JOSE IVAN|LOPEZ|AQUINO|1|MORELOS 1660|SAN JUAN TIZAHUAPAN|HIDALGO|EPAZOYUCAN|43580|LOAJ-840130-3C3|1|7712194122|30/01/1984|ivan_tkdz@hotmail.com|5432^5432^5432|34258|01|01|210900.00|$ 1,000,000 POR EVENTO|$    250,000 POR EVENTO|0.05|0.1|50000|$ 3,000,000 POR EVENTO|48|1
30|3|4125061066|0|13391|2016|G6J / LOBO PLATINUM CREW CAB 4x4||6931176530|02/09/2017|02/09/2021|01|4|360|S/NGASOLINA|1FTEW1EG2GFC63808||129505.08|420.00|13118.86|0.00|22887.03|0.00|0.00|0.00|165930.97|CARLOS HOMERO|GONZALEZ|ESPINOSA|1|AV ROJO GOMEZ 213|FRACC JUAN C DORIA|HIDALGO|PACHUCA DE SOTO|42083|GOEC-690904-7E7|1|7711333480|04/09/1969|dolmos@dbmgroup.mx|5432^5432^5432|34258|01|01|806300.00|$ 1,200,000 POR EVENTO|$    150,000 POR EVENTO|0.05|0.1|50000|$ 3,000,000 POR EVENTO|48|2
30|3|4125060954|0|3199|2016|X5D / FIGO IMPULSE TM A/A 4 PTAS W/DEFROSTER||0141238169|22/08/2017|22/08/2021|01|4|360|GA119296|MAJFP1MD0GA119296|2F9570I4|28168.24|420.00|2853.44|0.00|5030.67|0.00|0.00|0.00|36472.35|AURELIO ALEJANDRO|LOMAS|RODRIGUEZ|1|CUMBRES DE POPOCATEPETL 401|CUMBRES|COAHUILA|PIEDRAS NEGRAS|26080|LORA-920812-SH5|1|8781040462|12/08/1992|A.LOMAS_@HOTMAIL.COM|5432^5432^5432|34258|01|01|174550.00|$ 1,000,000 POR EVENTO|$    250,000 POR EVENTO|0.05|0.1|50000|$ 3,000,000 POR EVENTO|48|1
30|3|4125060978|0|13101|2017|J1E / RANGER XLT GAS CREW CAB||5091133055|25/08/2016|25/08/2018|01|2|360|IMPORTADO|8AFWR5AA1H6432182|3E70HAIH|30931.82|420.00|881.56|0.00|5157.34|0.00|0.00|0.00|37390.72|ANTONIO|JUAREZ|ROMERO|1|1 A OTE 351|SAN JUAN TETLA|PUEBLA|CHIAUTZINGO|74155|JURA-610117-A40|1|2226742185|17/01/1961|RAMSITALIA912@HOTMAIL.COM|5432^5432^5432|34259|01|01|379900.00|$ 1,200,000 POR EVENTO|$    150,000 POR EVENTO|0.05|0.1|50000|$ 3,000,000 POR EVENTO|24|2
30|3|4125060987|0|3199|2016|X5D / FIGO IMPULSE TM A/A 4 PTAS W/DEFROSTER||5091280026|25/08/2017|25/08/2020|01|3|360|IMPORTADO|MAJFP1MD0GA114311|2KC7696A|21126.18|420.00|1288.70|0.00|3653.58|0.00|0.00|0.00|26488.46|ARNULFO|MATAMOROS|LIRA|1|PRIVADA ALCATRAZ 10|VIVEROS DEL VALLE|PUEBLA|PUEBLA (HEROICA PUEBLA)|72000|MALA-620815-U22|1|2225917402|15/08/1962|arnulfomata162@hotmail.com|5432^5432^5432|34258|01|01|174550.00|$ 1,000,000 POR EVENTO|$    250,000 POR EVENTO|0.05|0.1|50000|$ 3,000,000 POR EVENTO|36|1
30|3|4125060974|0|8631|2016|X5B / FIGO IMPULSE TA A/A 4 PTAS W/DEFROSTER||0141223066|25/08/2017|25/08/2021|01|4|360|GA122775|MAJFP1MD5GA122775|3035EB2C|30270.64|420.00|3066.42|0.00|5401.13|0.00|0.00|0.00|39158.19|BLANCA ROSA|HERNANDEZ|RAMIREZ|1|CAPORAL 3326|VALLE VERDE|COAHUILA|ACUÑA|26230|HERB-740927-3N7|1|8777734529|27/09/1974|almayarturo@hotmail.com|5432^5432^5432|34258|01|01|192800.00|$ 1,000,000 POR EVENTO|$    250,000 POR EVENTO|0.05|0.1|50000|$ 3,000,000 POR EVENTO|48|1
30|3|4125060996|0|8631|2016|X5B / FIGO IMPULSE TA A/A 4 PTAS W/DEFROSTER||0141223070|26/08/2017|26/08/2021|01|4|360|GA117921|MAJFP1MD9GA117921||30270.64|420.00|3066.42|0.00|5401.13|0.00|0.00|0.00|39158.19|MA. DEL ROSARIO|LOPEZ|LOPEZ|1|ALLENDE 1005|CENTRO|COAHUILA|ZARAGOZA|26450|LOLM-580928-PIA|1|8626261741|28/09/1958|chayo2858@hotmail.com|5432^5432^5432|34258|01|01|192800.00|$ 1,000,000 POR EVENTO|$    250,000 POR EVENTO|0.05|0.1|50000|$ 3,000,000 POR EVENTO|48|1
30|3|4125061003|0|8631|2016|X5B / FIGO IMPULSE TA A/A 4 PTAS W/DEFROSTER||0141223061|26/08/2017|26/08/2021|01|4|360|GA122339|MAJFP1MD4GA122329|2O97O4H9|30270.64|420.00|3066.42|0.00|5401.13|0.00|0.00|0.00|39158.19|LOURDES GUADALUPE|CORTES|HERNANDEZ|1|ALCATRAZ 330|FRACC VALLE DEL SOL|COAHUILA|ACUÑA|26283|COHL-881017-4C2|1|8771313911|17/10/1988|LGPECORTES@HOTMAIL.COM|5432^5432^5432|34258|01|01|192800.00|$ 1,000,000 POR EVENTO|$    250,000 POR EVENTO|0.05|0.1|50000|$ 3,000,000 POR EVENTO|48|1
30|3|4125061019|0|8631|2016|X5B / FIGO IMPULSE TA A/A 4 PTAS W/DEFROSTER||0141223073|29/08/2017|29/08/2021|01|4|360|GA122772|MAJFP1MDXGA122772||30270.64|420.00|3066.42|0.00|5401.13|0.00|0.00|0.00|39158.19|CYNTHIA ALEJANDRA|RODRIGUEZ|RODRIGUEZ|1|REFORMA 310|DIVISION DEL NORTE|COAHUILA|PIEDRAS NEGRAS|26015|RORC-911121-J94|1|8787955808|21/11/1991|JURIDICOPIEDRASNEGRAS@MAIL.COM|5432^5432^5432|34258|01|01|192800.00|$ 1,000,000 POR EVENTO|$    250,000 POR EVENTO|0.05|0.1|50000|$ 3,000,000 POR EVENTO|48|1
30|3|4125061048|0|3199|2016|X5D / FIGO IMPULSE TM A/A 4 PTAS W/DEFROSTER||0141238180|31/08/2017|31/08/2021|01|4|360|GA119299|MAJFP1MD6GA119299|4FLLDPMH|28168.24|420.00|2853.44|0.00|5030.67|0.00|0.00|0.00|36472.35|JOSE LUIS|ALMANZA|ROBLES|1|SIERRA DE ARTEAGA 733|FRACC LOS MONTES|COAHUILA|PIEDRAS NEGRAS|26015|AARL-630829-JG5|1|8781272202|29/08/1963|elssa_tazz@hotmail.com|5432^5432^5432|34258|01|01|174550.00|$ 1,000,000 POR EVENTO|$    250,000 POR EVENTO|0.05|0.1|50000|$ 3,000,000 POR EVENTO|48|1
30|3|4125061062|0|13101|2017|J1E / RANGER XLT GAS CREW CAB||0141280041|01/09/2017|01/09/2020|01|3|360|H6428698|8AFWR5AA5H6428696|4FEL553F|42896.85|420.00|2616.71|0.00|7349.37|0.00|0.00|0.00|53282.93|LUIS ERIC|LOPEZ|CARRANZA|1|SANTA SILVIA 622|VILLAS DE SAN MIGUEL|TAMAULIPAS|NUEVO LAREDO|88283|LOCL-871204-JM9|1|8671212105|04/12/1987|michelle-morales2011@live.com|5432^5432^5432|34258|01|01|379900.00|$ 1,200,000 POR EVENTO|$    150,000 POR EVENTO|0.05|0.1|50000|$ 3,000,000 POR EVENTO|36|2
30|3|4125060928|0|8631|2016|X5B / FIGO IMPULSE TA A/A 4 PTAS W/DEFROSTER||3311176493|23/08/2017|23/08/2021|01|4|360|SN|MAJFP1MD2GA112222|52I98B67|30270.64|420.00|3066.42|0.00|5401.13|0.00|0.00|0.00|39158.19|SHAIRE ALEJANDRA|JIMENEZ|TORREZ|1|CUAUHTEMOC 20|EZAPATA TABASCO|TABASCO|EMILIANO ZAPATA|86980|JITS-810203-FB0|1|019343430941|03/02/1981|shairejimtor@gmail.com|5432^5432^5432|34258|01|01|192800.00|$ 1,000,000 POR EVENTO|$    250,000 POR EVENTO|0.05|0.1|50000|$ 3,000,000 POR EVENTO|48|1
30|3|4125060967|0|8633|2016|X6C / FIGO ENERGY TA 4 PTAS W/DEFROSTER||3311225076|25/08/2017|25/08/2021|01|4|360|SN|MAJFP1MDXGA109360|4EH23J9G|31756.72|420.00|3216.96|0.00|5662.99|0.00|0.00|0.00|41056.67|ROCIO|NARVAEZ|LOPEZ|1|JUAN ALVAREZ 523|CENTRO|TABASCO|VILLAHERMOSA|86000|NALR-710607-3V6|1|019933266630|07/06/1971|rnarvaez708@gmail.com|5432^5432^5432|34258|01|01|205700.00|$ 1,000,000 POR EVENTO|$    250,000 POR EVENTO|0.05|0.1|50000|$ 3,000,000 POR EVENTO|48|1
30|3|4125060970|0|8637|2016|X6B / FIGO ENERGY TM 5 PTAS W/DEFROSTER||3311239017|26/08/2017|26/08/2021|01|4|360|SN|MAJFP1ND2GA113286|420CM5LE|29395.12|420.00|2977.73|0.00|5246.86|0.00|0.00|0.00|38039.71|RAYMUNDO MANUEL GUSTAVO|LASTRA|HERNANDEZ|1|1A CDA CLLE 9 117|REFORMA|TABASCO|VILLAHERMOSA|86080|LAHR-730118-ND4|1|019932973137|18/01/1973|raymundolastra@hotmail.com|5432^5432^5432|34258|01|01|185200.00|$ 1,000,000 POR EVENTO|$    250,000 POR EVENTO|0.05|0.1|50000|$ 3,000,000 POR EVENTO|48|1
30|3|4125060983|0|1924|2016|F2D/2 / FIESTA SE TM 4 PTAS SIN QUEMACOCOS||3311277009|29/08/2017|29/08/2021|01|4|360|SN|3FADP4BJ7GM168564|51PDM7PK|32355.76|420.00|3277.64|0.00|5768.54|0.00|0.00|0.00|41821.94|CECILIA|VAZQUEZ|VAZQUEZ|1|RIO TEAPA 303|LA SIERRA|TABASCO|TEAPA|86800|VAVC-841205-446|1|019323221221|05/12/1984|cecy075@hotmail.com|5432^5432^5432|34258|01|01|210900.00|$ 1,000,000 POR EVENTO|$    250,000 POR EVENTO|0.05|0.1|50000|$ 3,000,000 POR EVENTO|48|1
30|3|4125061005|0|3199|2016|X5D / FIGO IMPULSE TM A/A 4 PTAS W/DEFROSTER||3311230035|30/08/2017|30/08/2020|01|3|360|SN|MAJFP1MD5GA122615|4JNKCD6J|21126.18|420.00|1288.70|0.00|3653.58|0.00|0.00|0.00|26488.46|JOSE DE LOS SANTOS|AVALOS|COLOME|1|PROGRESO 332|ATASTA|TABASCO|VILLAHERMOSA|86100|AACS-450317-4K8|1|019933243761|17/03/1945|ABRAHAM1184@HOTMAIL.COM|5432^5432^5432|34258|01|01|174550.00|$ 1,000,000 POR EVENTO|$    250,000 POR EVENTO|0.05|0.1|50000|$ 3,000,000 POR EVENTO|36|1
30|3|4125061029|0|8635|2016|X5C / FIGO IMPULSE TM A/A 5 PTAS W/DEFROSTER||3311216075|30/08/2017|30/08/2021|01|4|360|SN|MAJFP1ND3GA113717|4F2CK65C|27753.52|420.00|2811.43|0.00|4957.59|0.00|0.00|0.00|35942.54|DOLORES|LANDERO|BAÑOS|1|AVE DE LA PAZ 704 1|BARR SAN JOAQUIN|TABASCO|BALANCAN|86930|LABD-580113-5M1|1|019343440963|13/01/1958|alvarez9_94@live.com.mx|5432^5432^5432|34258|01|01|170950.00|$ 1,000,000 POR EVENTO|$    250,000 POR EVENTO|0.05|0.1|50000|$ 3,000,000 POR EVENTO|48|1
30|3|4125061034|0|1922|2016|F3D / FIESTA S TM 4 PTAS||3311269012|31/08/2017|31/08/2021|01|4|360|SN|3FAFP4AJ7GM181230|41O1CPE3|30927.28|420.00|3132.93|0.00|5516.83|0.00|0.00|0.00|39997.04|RENE PAUL|CANO|RAMIREZ|1|AV PUERTO ESCONDIDO 111|ATASTA|TABASCO|VILLAHERMOSA|86100|CARR-830313-LL0|1|019933544128|13/03/1983|chame77@hotmail.com|5432^5432^5432|34258|01|01|198500.00|$ 1,000,000 POR EVENTO|$    250,000 POR EVENTO|0.05|0.1|50000|$ 3,000,000 POR EVENTO|48|1
30|3|4125061049|0|1925|2016|F2C / FIESTA SE TA 4 PTAS||3311278013|02/09/2017|02/09/2021|01|4|360|SN|3FADP4BJXGM131847|3MELJN20|35016.88|420.00|3547.21|0.00|6237.45|0.00|0.00|0.00|45221.54|CLAUDIA VANESA|GUZMAN|HIDALGO|1|ABRAHAM BANDALA 712 11|TAMULTE|TABASCO|VILLAHERMOSA|86150|GUHC-890710-5H6|1|019933514055|10/07/1989|vanesa_hidalgo@hotmail.com|5432^5432^5432|34258|01|01|234000.00|$ 1,000,000 POR EVENTO|$    250,000 POR EVENTO|0.05|0.1|50000|$ 3,000,000 POR EVENTO|48|1
30|3|4125061054|0|1925|2016|F2C / FIESTA SE TA 4 PTAS||3311278012|02/09/2017|02/09/2021|01|4|360|SN|3FADP4BJXGM180756|4F8FAD2F|35016.88|420.00|3547.21|0.00|6237.45|0.00|0.00|0.00|45221.54|ALMA NIDIA|GARCIA|HERNANDEZ|1|CTO DE LAS BRISAS 409|LAS BRISAS|TABASCO|VILLAHERMOSA|86095|GAHA-610410-UI1|1|019933153818|10/04/1961|jmcalzadagarcia@gmail.com|5432^5432^5432|34258|01|01|234000.00|$ 1,000,000 POR EVENTO|$    250,000 POR EVENTO|0.05|0.1|50000|$ 3,000,000 POR EVENTO|48|1
30|3|4125061060|0|8636|2016|X5A / FIGO IMPULSE TA A/A 5 PTAS W/DEFROSTER||3311230039|02/09/2017|02/09/2021|01|4|360|SN|MAJFP1ND9GA121742|505ACJ0P|29855.92|420.00|3024.40|0.00|5328.05|0.00|0.00|0.00|38628.37|ALONDRA|ALDECOA|HERNANDEZ|1|AHUEHUETE 425|BOSQUES DE ARABA|TABASCO|CENTRO|86280|AEHA-850221-MP6|1|019931841683|21/02/1985|cuca83@hotmail.com|5432^5432^5432|34258|01|01|189200.00|$ 1,000,000 POR EVENTO|$    250,000 POR EVENTO|0.05|0.1|50000|$ 3,000,000 POR EVENTO|48|1
30|3|4125061061|0|3199|2016|X5D / FIGO IMPULSE TM A/A 4 PTAS W/DEFROSTER||3311176515|02/09/2017|02/09/2021|01|4|360|SN|MAJFP1MD4GA119740|2NJEBG3A|28168.24|420.00|2853.44|0.00|5030.67|0.00|0.00|0.00|36472.35|MARIA YSIDRA|DIONICIO|CONTRERAS|1|NACAJUCA 183 KM 8|BOSQUES DE SALOYA|TABASCO|VILLAHERMOSA|86039|DICY-530515-PC5|1|019931397539|15/05/1953|dio_may@gmail.com|5432^5432^5432|34258|01|01|174550.00|$ 1,000,000 POR EVENTO|$    250,000 POR EVENTO|0.05|0.1|50000|$ 3,000,000 POR EVENTO|48|1
30|3|4125060951|0|8632|2016|X6D / FIGO ENERGY TM 4 PTAS W/DEFROSTER||6261225078|23/08/2017|23/08/2021|01|4|360|S/N|MAJFP1MD3GA120006|5AN30O1E|29809.84|420.00|3019.74|0.00|5319.93|0.00|0.00|0.00|38569.51|SUSANA ILDA|GARCIA|LARA|1|IGNACIO ALLENDE 807|FRANCISCO MURGUIA|ESTADO DE MEXICO|TOLUCA DE LERDO|50130|GALS-560321-LM8|1|7222702540|21/03/1956|susanailda@hotmail.com|5432^5432^5432|34258|01|01|188800.00|$ 1,000,000 POR EVENTO|$    250,000 POR EVENTO|0.05|0.1|50000|$ 3,000,000 POR EVENTO|48|1
30|3|4125060962|0|1924|2016|F2D / FIESTA SE TM 4 PTAS||6261093196|27/08/2017|27/08/2021|01|4|360|S/N|3FADP4BJ9GM146114|4DN5M90O|32931.76|420.00|3335.99|0.00|5870.04|0.00|0.00|0.00|42557.79|REBECA JULIETA|GAMA|CASTAÑEDA|1|FILEMON FUENTES 17|BARRIO CHACOPINGA|ESTADO DE MEXICO|ZACUALPAN|51800|GACR-790905-NN3|1|7211476273|05/09/1979|rjgc_191@hotmail.com|5432^5432^5432|34258|01|01|215900.00|$ 1,000,000 POR EVENTO|$    250,000 POR EVENTO|0.05|0.1|50000|$ 3,000,000 POR EVENTO|48|1
30|3|4125060964|0|3199|2016|X5D / FIGO IMPULSE TM A/A 4 PTAS W/DEFROSTER||6261280028|27/08/2017|27/08/2020|01|3|360|S/N|MAJFP1MD2GA114231|3NM28F94|21126.18|420.00|1288.70|0.00|3653.58|0.00|0.00|0.00|26488.46|LUIS DANIEL|CACILDO|MARTINEZ|1|GUANAJUATO S/N|BARRIO DE TEPEXOYUCA|ESTADO DE MEXICO|OCOYOACAC|52755|CAML-971009-HF1|1|7282876051|09/10/1997|marisa1409@hotmail.com|5432^5432^5432|34258|01|01|174550.00|$ 1,000,000 POR EVENTO|$    250,000 POR EVENTO|0.05|0.1|50000|$ 3,000,000 POR EVENTO|36|1
30|3|4125061047|0|8635|2016|X5C / FIGO IMPULSE TM A/A 5 PTAS W/DEFROSTER||6261266029|03/09/2017|03/09/2022|01|5|360|S/N|MAJFP1ND1GA110427|5A8JLMGN|34691.90|420.00|6324.33|0.00|6629.80|0.00|0.00|0.00|48066.03|JOSE LUIS|SANCHEZ|SANCHEZ|1|SILVIANO GARCIA 313 B|FRANCISCO MURGUIA|ESTADO DE MEXICO|TOLUCA DE LERDO|50130|SASL-631024-P63|1|7222157073|24/10/1963|jose_sansan@hotmail.com|5432^5432^5432|34258|01|01|170950.00|$ 1,000,000 POR EVENTO|$    250,000 POR EVENTO|0.05|0.1|50000|$ 3,000,000 POR EVENTO|60|1
30|3|4125061064|0|3199|2016|X5D / FIGO IMPULSE TM A/A 4 PTAS W/DEFROSTER||4741238196|02/09/2017|02/09/2021|01|4|360|S/N|MAJFP1MD0GA119847|2K8PNPED|28168.24|420.00|2853.44|0.00|5030.67|0.00|0.00|0.00|36472.35|JORGE|GABINO|GALLARDO|1|MANUEL NAVARRETE 43 B 101|ALGARIN|DISTRITO FEDERAL|CUAUHTEMOC|06880|GAGJ-540727-3J4|1|5554400958|27/07/1954|jorge-gabino@hotmail.com|5432^5432^5432|34258|01|01|174550.00|$ 1,000,000 POR EVENTO|$    250,000 POR EVENTO|0.05|0.1|50000|$ 3,000,000 POR EVENTO|48|1
30|3|4125061067|0|1924|2016|F2D / FIESTA SE TM 4 PTAS||4741281005|02/09/2017|02/09/2020|01|3|360|S/N|3FADP4BJ2GM186728|424869HO|24698.82|420.00|1506.63|0.00|4260.07|0.00|0.00|0.00|30885.52|HILDA SOFIA|TREJO|JAIMES|1|AVE PLUTARCO ELIAS CALLES 712|GRANJAS MEXICO|DISTRITO FEDERAL|IZTACALCO|08400|TEJH-840918-9Z1|1|5556544627|18/09/1984|sofi_tjs@hotmail.com|5432^5432^5432|34258|01|01|215900.00|$ 1,000,000 POR EVENTO|$    250,000 POR EVENTO|0.05|0.1|50000|$ 3,000,000 POR EVENTO|36|1
30|3|4125061052|0|3199|2016|X5D / FIGO IMPULSE TM A/A 4 PTAS W/DEFROSTER||6481238190|02/09/2017|02/09/2021|01|4|360|HECHO EN LA INDIA|MAJFP1MD6GA117018|3DK7AGB2|28162.48|420.00|2852.86|0.00|5029.65|0.00|0.00|0.00|36464.99|NESTOR MAURICIO|SANDOVAL|DELGADO|1|ARBOLEDAS DE IBARRILA 717|ARBOLEDAS DE IBARRILLA|GUANAJUATO|LEON DE LOS ALDAMA (LEON)|37200|SADN-930226-RD2|1|4772631436|26/02/1993|j.sandoval67@hotmail.com|5432^5432^5432|34258|01|01|174500.00|$ 1,000,000 POR EVENTO|$    250,000 POR EVENTO|0.05|0.1|50000|$ 3,000,000 POR EVENTO|48|1
30|3|4125061075|0|1922|2016|F3D / FIESTA S TM 4 PTAS||6481225082|01/09/2017|01/09/2021|01|4|360|HECHO EN MEXICO|3FAFP4AJ6GM187763|469ICF1D|30927.28|420.00|3132.93|0.00|5516.83|0.00|0.00|0.00|39997.04|JESUS|VILLA|FERREIRA|1|OBISPO GERARDO ANAYA 117|OBISPADO|SAN LUIS POTOSI|SAN LUIS POTOSI|78396|VIFJ-890826-H1A|1|4448316452|26/08/1989|jesussvf@gmail.com|5432^5432^5432|34258|01|01|198500.00|$ 1,000,000 POR EVENTO|$    250,000 POR EVENTO|0.05|0.1|50000|$ 3,000,000 POR EVENTO|48|1
30|2|PZR139690000|0|1830505|2016|G5J / LOBO KING RANCH CREW CAB 4X4 ECOBOOST||6871176510|23/08/2017|23/08/2021|01|4|360|S/N|1FTEW1EG0GKF14378||122986.93|400.00|0.00|0.00|19741.91|0.00|0.00|0.00|143128.84|AGAPITO|ESPINOZA|JOSE MARTIN|1|PABLO SIDAR 716|DEL PARQUE|ESTADO DE MEXICO|TOLUCA DE LERDO|50170|EIJA-680130-575|1|7222806987|30/01/1968|kokioyoulove@hotmail.com|TA5192|29580|01|01|760000.00|0|0|0.05|0.1|0|0|48|2
30|2|PYR157560000|0|1830505|2016|G5J / LOBO KING RANCH CREW CAB 4X4 ECOBOOST||6871176510|23/08/2016|23/08/2017|01|1|0|S/N|1FTEW1EG0GKF14378||25098.35|400.00|0.00|0.00|4079.74|0.00|0.00|0.00|29578.09|FINANCIERA AUTOPCION, S.A. DE C.V. SOFOM ENR|||2|CALZ. GRAL. MARIANO ESCOBEDO NO. 498 PISO 8|ANZURES|DISTRITO FEDERAL|MIGUEL HIDALGO|11590|CON080707DD4|2|52.28.70.00|01/01/1900||TA5192|29580|01|01|760000.00|0|0|0.05|0.1|0|0|12|2
30|3|4125061001|0|8637|2016|X6B / FIGO ENERGY TM 5 PTAS W/DEFROSTER||6871242007|26/08/2017|26/08/2020|01|3|360|SN|MAJFP1ND9GA118422||21959.94|420.00|1339.56|0.00|3795.12|0.00|0.00|0.00|27514.62|BEATRIZ IXEL|COSTILLA|CALDERON|1|CEBORUCO 2401|AZTECA|ESTADO DE MEXICO|TOLUCA DE LERDO|50180|COCB-891216-77A|1|7223807295|16/12/1989|coscal_89@hotmail.com|5432^5432^5432|34258|01|01|184200.00|$ 1,000,000 POR EVENTO|$    250,000 POR EVENTO|0.05|0.1|50000|$ 3,000,000 POR EVENTO|36|1
30|3|4125061004|0|3199|2016|X5D / FIGO IMPULSE TM A/A 4 PTAS W/DEFROSTER||4681266028|26/08/2017|26/08/2022|01|5|360|SIN NUMERO|MAJFP1MD6GA113924|4F2BB6DA|35210.30|420.00|6418.84|0.00|6727.86|0.00|0.00|0.00|48777.00|PATRICIA|GRANADOS|AZCARRAGA|1|AND MIRADOR 1ER EDIF 11 301|CULHUACAN CTM CROC|DISTRITO FEDERAL|COYOACAN|04480|GAAP-610319-3R7|1|5526521026|19/03/1961|cesarargenis@hotmail.es|5432^5432^5432|34258|01|01|174550.00|$ 1,000,000 POR EVENTO|$    250,000 POR EVENTO|0.05|0.1|50000|$ 3,000,000 POR EVENTO|60|1
30|3|4125061055|0|3199|2016|X5D / FIGO IMPULSE TM A/A 4 PTAS W/DEFROSTER||4681231016|31/08/2017|31/08/2020|01|3|360|SIN NUMERO|MAJFP1MD3GA118210|40831C57|21126.18|420.00|1288.70|0.00|3653.58|0.00|0.00|0.00|26488.46|NOE CONSTANTINO|REYES|GONZALEZ|1|ME VOY 268|ESPERANZA|ESTADO DE MEXICO|CIUDAD NEZAHUALCOYOTL|57800|REGN-860123-SQ5|1|5554413650|23/01/1986|direccio@reqcamp.com.mx|5432^5432^5432|34258|01|01|174550.00|$ 1,000,000 POR EVENTO|$    250,000 POR EVENTO|0.05|0.1|50000|$ 3,000,000 POR EVENTO|36|1
30|3|4125060927|0|3199|2016|X5D / FIGO IMPULSE TM A/A 4 PTAS W/DEFROSTER||1211266022|23/08/2017|23/08/2022|01|5|360|S/N|MAJFP1MD8GA119949|4JNK6510|35210.30|420.00|6418.84|0.00|6727.86|0.00|0.00|0.00|48777.00|BRENDA EDITH|MARTINEZ|PEÑALOZA|1|PORFIRIO DIAZ 1|LOS CUES|VERACRUZ|PLATON SANCHEZ|92143|MAPB-810913-5G1|1|7898827940|13/09/1981|brendith_13@hotmail.com|5432^5432^5432|34258|01|01|174550.00|$ 1,000,000 POR EVENTO|$    250,000 POR EVENTO|0.05|0.1|50000|$ 3,000,000 POR EVENTO|60|1
30|3|4125060981|0|8636|2016|X5A / FIGO IMPULSE TA A/A 5 PTAS W/DEFROSTER||1211230036|25/08/2017|25/08/2021|01|4|360|S/N|MAJFP1ND9GA117738|2HBNBB1O|29855.92|420.00|3024.40|0.00|5328.05|0.00|0.00|0.00|38628.37|ANGUIANO|GAYTAN|IVAN|1|CALLE D 102 2|LOMAS DE INFONAVIT|TAMAULIPAS|TAMPICO|89368|GAIA-921207-AQ4|1|8331323433|07/12/1992|ivan_1992_55@hotmail.com|5432^5432^5432|34258|01|01|189200.00|$ 1,000,000 POR EVENTO|$    250,000 POR EVENTO|0.05|0.1|50000|$ 3,000,000 POR EVENTO|48|1
30|3|4125061036|0|8632|2016|X6D / FIGO ENERGY TM 4 PTAS W/DEFROSTER||1211176519|30/08/2017|30/08/2021|01|4|360|S/N|MAJFP1MD4GA118359|35G5PADP|29809.84|420.00|3019.74|0.00|5319.93|0.00|0.00|0.00|38569.51|RODRIGUEZ|MIJES|HUGO CESAR|1|CTO GOLFO DE MEXICO 228|MIRAMAPOLIS|TAMAULIPAS|CIUDAD MADERO|89506|MIHR-790605-1N1|1|8332694185|05/06/1979|burdejr_cesa@hotmail.com|5432^5432^5432|34258|01|01|188800.00|$ 1,000,000 POR EVENTO|$    250,000 POR EVENTO|0.05|0.1|50000|$ 3,000,000 POR EVENTO|48|1
30|3|4125060971|0|3199|2016|X5D / FIGO IMPULSE TM A/A 4 PTAS W/DEFROSTER||1071238170|24/08/2017|24/08/2021|01|4|360|SN|MAJFP1MDXGA118835||28168.24|420.00|2853.44|0.00|5030.67|0.00|0.00|0.00|36472.35|ANGELICA NAOMY|MONTERO|MARTINEZ|1|ORQUIDEA 3|MIGUEL ALEMAN II AMPLIACION|VERACRUZ|BOCA DEL RIO|94297|MOMA951228KN5|1|2292849008|28/12/1995|ANLLI_EDU@HOTMAIL.COM|5432^5432^5432|34258|01|01|174550.00|$ 1,000,000 POR EVENTO|$    250,000 POR EVENTO|0.05|0.1|50000|$ 3,000,000 POR EVENTO|48|1
30|2|PZR139790000|0|1491605|2016|G4J / LOBO LARIAT CREW CAB 4x4||1071093206|31/08/2017|31/08/2021|01|4|360|SN|1FTEW1EG8GKE90315||117222.93|400.00|0.00|0.00|18819.67|0.00|0.00|0.00|136442.60|LUIS DIDIER|RODRIGUEZ|HERMIDA|1|CAMELIAS 403|REMES|VERACRUZ|BOCA DEL RIO|94295|ROHL-711010-SG2|1|2299221653|10/10/1971|luisdidier71@gmail.com|TA5192|29580|01|01|719100.00|0|0|0.05|0.1|0|0|48|2
30|2|PYR158280000|0|1491605|2016|G4J / LOBO LARIAT CREW CAB 4x4||1071093206|31/08/2016|31/08/2017|01|1|0|SN|1FTEW1EG8GKE90315||23922.07|400.00|0.00|0.00|3891.53|0.00|0.00|0.00|28213.60|FINANCIERA AUTOPCION, S.A. DE C.V. SOFOM ENR|||2|CALZ. GRAL. MARIANO ESCOBEDO NO. 498 PISO 8|ANZURES|DISTRITO FEDERAL|MIGUEL HIDALGO|11590|CON080707DD4|2|52.28.70.00|01/01/1900||TA5192|29580|01|01|719100.00|0|0|0.05|0.1|0|0|12|2
30|3|4125060989|0|3199|2016|X5D / FIGO IMPULSE TM A/A 4 PTAS W/DEFROSTER||0721238025|25/08/2017|25/08/2021|01|4|360|SN|MAJFP1MD3GA122628||28168.24|420.00|2853.44|0.00|5030.67|0.00|0.00|0.00|36472.35|HAYDE IVETTH|IÑIGUEZ|MORALES|1|5 C POR 46 Y 48 440|PENSIONES|YUCATAN|MERIDA|97219|IIMH-790613-3P0|1|9999876836|13/06/1979|h-iniguez130679@gmail.com|5432^5432^5432|34258|01|01|174550.00|$ 1,000,000 POR EVENTO|$    250,000 POR EVENTO|0.05|0.1|50000|$ 3,000,000 POR EVENTO|48|1
30|3|4125060992|0|3199|2016|X5D / FIGO IMPULSE TM A/A 4 PTAS W/DEFROSTER||0721238152|26/08/2017|26/08/2021|01|4|360|INDIA|MAJFP1MD6GA122624|457KL8M9|28168.24|420.00|2853.44|0.00|5030.67|0.00|0.00|0.00|36472.35|ADDA ELDA|GARRIDO|MAAS|1|AND NAYARIT MZA 68 LT 13|FIDEL VELAZQUEZ|CAMPECHE|SAN FRANCISCO DE CAMPECHE|24023|GAMA-890528-EY3|1|9818175213|28/05/1989|fairy_238@hotmail.com|5432^5432^5432|34258|01|01|174550.00|$ 1,000,000 POR EVENTO|$    250,000 POR EVENTO|0.05|0.1|50000|$ 3,000,000 POR EVENTO|48|1
30|3|4125061059|0|8635|2016|Y5C / FIGO IMPULSE TM A/A 5 PTAS||0721216078|31/08/2017|31/08/2021|01|4|360|HECHOENIDIA|MAJFP1ND3GA117590|4FJM40G2|27753.52|420.00|2811.43|0.00|4957.59|0.00|0.00|0.00|35942.54|EDITH DEL CARMEN|REYES|ZETINA|1|PRV SANTIAGO MZA F LT 4|CD CONCORDIA|CAMPECHE|SAN FRANCISCO DE CAMPECHE|24085|REZE-630928-SY9|1|9818172397|28/09/1963|rafael_inurreta82@outlook.com|5432^5432^5432|34258|01|01|170950.00|$ 1,000,000 POR EVENTO|$    250,000 POR EVENTO|0.05|0.1|50000|$ 3,000,000 POR EVENTO|48|1
30|3|4125060926|0|8631|2016|Y5B / FIGO IMPULSE TA A/A 4 PTAS||4971223064|18/08/2017|18/08/2021|01|4|360|S/N|MAJFP1MD8GA107154|4DGI63IO|29487.28|420.00|2987.06|0.00|5263.09|0.00|0.00|0.00|38157.43|BENJAMIN|DELGADILLO|MONTES|1|AV PLKUTARCO ELIAS CALLES 876 12|CUAUHTEMOC POPULAR|JALISCO|GUADALAJARA|44750|DEMB-580402-NV5|1|013315231650|02/04/1958|DELMONBEN42@GMAIL.COM|5432^5432^5432|34258|01|01|186000.00|$ 1,000,000 POR EVENTO|$    250,000 POR EVENTO|0.05|0.1|50000|$ 3,000,000 POR EVENTO|48|1
30|3|4125060934|0|8633|2016|X6C / FIGO ENERGY TA 4 PTAS W/DEFROSTER||4971246020|19/08/2017|19/08/2021|01|4|360|S/N|MAJFP1MD6GA115382|519GCALM|31583.92|420.00|3199.45|0.00|5632.54|0.00|0.00|0.00|40835.91|HECTOR RAUL|PAGANONI|FLORES|1|VALLE DEL YAQUI 2123|JARDINES DEL VALLE|JALISCO|ZAPOPAN|45138|PAFH-510406-GW4|1|013319555916|06/04/1951|rubicita_love@hotmail.com|5432^5432^5432|34258|01|01|204200.00|$ 1,000,000 POR EVENTO|$    250,000 POR EVENTO|0.05|0.1|50000|$ 3,000,000 POR EVENTO|48|1
30|3|4125060999|0|8636|2016|Y5A / FIGO IMPULSE TA A/A 5 PTAS||4971230037|26/08/2017|26/08/2021|01|4|360|S/N|MAJFP1ND3GA101650|30OABNOH|29072.56|420.00|2945.05|0.00|5190.02|0.00|0.00|0.00|37627.63|NORBERTO|OCEGUEDA|LOPEZ|1|SANTA CECILIA 1038 8|SANTA MARGARITA RESIDENCIAL|JALISCO|ZAPOPAN|45138|OELN-640606-C32|1|013336364095|06/06/1964|ocegueda92@outlook.com|5432^5432^5432|34258|01|01|182400.00|$ 1,000,000 POR EVENTO|$    250,000 POR EVENTO|0.05|0.1|50000|$ 3,000,000 POR EVENTO|48|1
30|3|4125061011|0|3071|2016|F2B / FIESTA SE TM 5 PTAS||4971268013|27/08/2017|27/08/2022|01|5|360|S/N|3FADP4EJ2GM177720|4F703K0N|41164.70|420.00|7504.32|0.00|7854.24|0.00|0.00|0.00|56943.26|LUIS ROLANDO|CASTANEDA|SOTELO|1|SOTO Y GAMA 1125|RANCHO NUEVO1RA SECCION|JALISCO|GUADALAJARA|44240|CASL-911108-3L0|1|013318096425|08/11/1991|rolasky@hormial.com|5432^5432^5432|34258|01|01|215900.00|$ 1,000,000 POR EVENTO|$    250,000 POR EVENTO|0.05|0.1|50000|$ 3,000,000 POR EVENTO|60|1
30|3|4125061024|0|3192|2016|H2Y / ESCAPE TREND ECOBOOST||4971093204|29/08/2017|29/08/2021|01|4|360|S/N|WF0CP6A98G1B54050|4ECN77C1|47394.00|420.00|4801.01|0.00|8418.40|0.00|0.00|0.00|61033.41|MARCO ANTONIO|SANCHEZ|CORNEJO|1|HIDALGO 2525 9|LADRON DE GUEVARA|JALISCO|GUADALAJARA|44600|SACM-590417-PR9|1|013336160570|17/04/1959|mksconsultores@prodigy.net|5432^5432^5432|34258|01|01|404900.00|$ 1,000,000 POR EVENTO|$    250,000 POR EVENTO|0.05|0.1|50000|$ 3,000,000 POR EVENTO|48|1
30|3|4125061023|0|3192|2016|H2Y / ESCAPE TREND ECOBOOST||4971093204|29/08/2016|29/08/2017|01|1|0|S/N|WF0CP6A98G1B54050|4ECN77C1|11848.50|420.00|0.00|0.00|1962.96|0.00|0.00|0.00|14231.46|FINANCIERA AUTOPCION, S.A. DE C.V. SOFOM ENR|||2|CALZ. GRAL. MARIANO ESCOBEDO NO. 498 PISO 8|ANZURES|DISTRITO FEDERAL|MIGUEL HIDALGO|11590|CON080707DD4|2|52.28.70.00|01/01/1900||5432^5432^5432|34258|01|01|404900.00|$ 1,000,000 POR EVENTO|$    250,000 POR EVENTO|0.05|0.1|50000|$ 3,000,000 POR EVENTO|12|1
30|3|4125061045|0|1922|2016|F3D / FIESTA S TM 4 PTAS||4971093201|30/08/2017|30/08/2021|01|4|360|S/N|3FAFP4AJ4GM186966|34IEG6I1|30927.28|420.00|3132.93|0.00|5516.83|0.00|0.00|0.00|39997.04|MARIA GUADALUPE|CHAVIRA|SANCHEZ|1|AVE MEZAPA 125|SANTA CRUZ DEL VALLE|JALISCO|TLAJOMULCO DE ZUÑIGA|45655|CASM-740117-KP6|1|0137972990|17/01/1974|mchavirasanchez@yahoo.com.mx|5432^5432^5432|34258|01|01|198500.00|$ 1,000,000 POR EVENTO|$    250,000 POR EVENTO|0.05|0.1|50000|$ 3,000,000 POR EVENTO|48|1
30|3|4125061057|0|13101|2017|J1E / RANGER XLT GAS CREW CAB||4971176520|31/08/2017|31/08/2021|01|4|360|S/N|8AFWR5AA8H6440649|4HHCJKCN|57195.80|420.00|5793.93|0.00|10145.56|0.00|0.00|0.00|73555.29|JARIB ABAD|CORDOVA|GANDARA|1|INDEPENDENCIA NORTE 3295 LLZELE|RICARDO FLORES MAGON|JALISCO|GUADALAJARA|44240|COGJ-961127-778|1|013320169616|27/11/1996|abadcor96@gamil.com|5432^5432^5432|34258|01|01|379900.00|$ 1,200,000 POR EVENTO|$    150,000 POR EVENTO|0.05|0.1|50000|$ 3,000,000 POR EVENTO|48|2
30|3|4125061076|0|8633|2016|X6C / FIGO ENERGY TA 4 PTAS W/DEFROSTER||4971093200|01/09/2017|01/09/2021|01|4|360|S/N|MAJFP1MD3GA124282|3NGHMM98|31756.72|420.00|3216.96|0.00|5662.99|0.00|0.00|0.00|41056.67|ELENA|CASANOVA|SERRANO|1|PASEO DE LOS CONEJOS 457|LOS CONEJOS|JALISCO|TONALA|45412|CASE-801217-6J9|1|3336071217|17/12/1980|enf_anele_casanova@hotmail.com|5432^5432^5432|34258|01|01|205700.00|$ 1,000,000 POR EVENTO|$    250,000 POR EVENTO|0.05|0.1|50000|$ 3,000,000 POR EVENTO|48|1
